.HEA
.APP "Cadstar RINF Output - Version 2.3"
.UNI INCH 1000.0 in
.TYP FULL 
.JOB "HON-MS-SZ-0_1-14OCT2020"

.ADD_COM A1 "2450AT18D0100_A"
.ADD_COM B1 "FILTER-BALUNA"
.ADD_COM C1 "0201_STANDARD"
.ADD_COM C10 "0402_XX"
.ADD_COM C11 "0402_XX"
.ADD_COM C12 "0402_XX"
.ADD_COM C13 "0402_XX"
.ADD_COM C14 "0402_XX"
.ADD_COM C15 "0402_XX"
.ADD_COM C16 "0402_XX"
.ADD_COM C17 "0603a_c1"
.ADD_COM C18 "0603a_c1"
.ADD_COM C19 "0603a_c1"
.ADD_COM C2 "0201_STANDARD"
.ADD_COM C20 "0603a_c1"
.ADD_COM C21 "b-3216-18new1"
.ADD_COM C3 "0201_STANDARD"
.ADD_COM C4 "0402_XX"
.ADD_COM C5 "0402_XX"
.ADD_COM C6 "0402_XX"
.ADD_COM C7 "0402_XX"
.ADD_COM C8 "0402_XX"
.ADD_COM C9 "0402A"
.ADD_COM D1 "led254mm2"
.ADD_COM D2 "led254mm2"
.ADD_COM J1 "conn2x1254a"
.ADD_COM J2 "PYQ1548_NEW4"
.ADD_COM J3 "conn4x1254"
.ADD_COM J4 "conn5x2127smt"
.ADD_COM L1 "0201_STANDARD"
.ADD_COM L2 "0402_XX"
.ADD_COM MH1 "mthole_51"
.ADD_COM MH2 "mthole_51"
.ADD_COM Q1 "SOT23"
.ADD_COM R1 "0603a_r1"
.ADD_COM R2 "0603a_r1"
.ADD_COM R3 "0603a_r1"
.ADD_COM R4 "0603a_r1"
.ADD_COM R5 "0603a_r1"
.ADD_COM R6 "0402A"
.ADD_COM R7 "0603a_r1"
.ADD_COM R8 "0603a_r1"
.ADD_COM R9 "0603a_r1"
.ADD_COM RF1 "TPA"
.ADD_COM RF2 "TPA"
.ADD_COM S1 "pir_sw"
.ADD_COM S2 "pir_sw"
.ADD_COM TP1 "tpa_pc_"
.ADD_COM TP10 "tpa_pc_"
.ADD_COM TP11 "tpa_pc_"
.ADD_COM TP12 "tpa_pc_"
.ADD_COM TP13 "tpa_pc_"
.ADD_COM TP14 "tpa_pc_"
.ADD_COM TP15 "tpa_pc_"
.ADD_COM TP2 "tpa_pc_"
.ADD_COM TP3 "tpa_pc_"
.ADD_COM TP4 "tpa_pc_"
.ADD_COM TP5 "tpa_pc_"
.ADD_COM TP6 "tpa_pc_"
.ADD_COM TP7 "tpa_pc_"
.ADD_COM TP8 "tpa_pc_"
.ADD_COM TP9 "tpa_pc_"
.ADD_COM U1 "48-PIN-QFNA"
.ADD_COM Y1 "xtal32768smda"
.ADD_COM Y2 "XTAL_16_SMD"


.ADD_TER  L1 1 "ANTENNA"
.TER      C2 1 
          A1 1 

.ADD_TER  C5 2 "AVDD"
.TER      U1 7 

.ADD_TER  R4 2 "CONFIG SWITCH"
.TER      S2 1 
          S2 2 

.ADD_TER  R9 2 "CONFIG_LED"
.TER      D2 2 

.ADD_TER  C9 1 "DVDD"
.TER      U1 30 

.ADD_TER  C9 2 "GND"
.TER      C16 1 
          C12 2 
          C4 2 
          C6 1 
          Y2 2 
          Y2 4 
          C5 1 
          U1 5 
          U1 8 
          U1 14 
          U1 17 
          U1 20 
          U1 29 
          U1 35 
          U1 42 
          U1 49 
          J1 2 
          C15 2 
          C14 1 
          C7 2 
          C1 2 
          B1 2 
          B1 5 
          B1 6 
          C21 2 
          C2 2 
          A1 2 
          A1 3 
          A1 4 
          C18 2 
          C17 2 
          J2 1 
          C19 2 
          C20 2 
          R7 2 
          J4 3 
          J4 5 
          J4 9 
          J3 4 
          S1 4 
          S1 3 
          S2 4 
          S2 3 
          Q1 1 
          C8 2 
          C10 2 
          C13 1 
          C11 1 
          TP3 1 

.ADD_TER  Y1 2 "PA00"
.TER      U1 1 
          TP11 1 
          C13 2 

.ADD_TER  Y1 1 "PA01"
.TER      U1 2 
          TP12 1 
          C11 2 

.ADD_TER  U1 24 "PA15"
.TER      C18 1 
          R4 1 
          R2 2 
          R9 1 
          TP9 1 

.ADD_TER  U1 27 "PA18"
.TER      TP10 1 
          R5 2 

.ADD_TER  U1 34 "PA25"
.TER      J2 4 
          R5 1 

.ADD_TER  U1 16 "PIR_OUT"
.TER      J2 2 
          C20 1 
          R7 1 
          TP15 1 

.ADD_TER  U1 40 "RESET"
.TER      R1 2 
          R3 1 
          C17 1 
          R8 1 
          J4 10 
          TP6 1 

.ADD_TER  R3 2 "RESET SWITCH"
.TER      S1 1 
          S1 2 

.ADD_TER  R8 2 "RESET_LED"
.TER      D1 2 

.ADD_TER  C1 1 "RF"
.TER      C3 1 
          L1 2 

.ADD_TER  U1 19 "RF_N"
.TER      B1 3 

.ADD_TER  U1 18 "RF_P"
.TER      B1 4 

.ADD_TER  B1 1 "RF_UNBAL"
.TER      C3 2 

.ADD_TER  U1 10 "RX0"
.TER      J3 2 
          TP8 1 

.ADD_TER  U1 45 "SWCLK"
.TER      R6 2 
          J4 4 
          TP5 1 

.ADD_TER  U1 46 "SWDIO"
.TER      J4 2 
          TP4 1 

.ADD_TER  U1 9 "TX0"
.TER      J3 1 
          TP7 1 

.ADD_TER  C16 2 "VCC"
.TER      C12 1 
          C4 1 
          L2 1 
          U1 13 
          U1 36 
          U1 44 
          C21 1 
          R2 1 
          R1 1 
          D1 1 
          D2 1 
          J2 3 
          C19 1 
          R6 1 
          J4 1 
          J3 3 
          Q1 2 
          TP1 1 
          C8 1 

.ADD_TER  L2 2 "VDDANA"
.TER      U1 6 
          C7 1 
          TP2 1 
          C10 1 

.ADD_TER  U1 43 "VDDCORE"
.TER      C15 1 

.ADD_TER  J1 1 "V_BAT"
.TER      Q1 3 

.ADD_TER  C6 2 "XTAL1"
.TER      Y2 3 
          U1 4 
          TP13 1 

.ADD_TER  Y2 1 "XTAL2"
.TER      U1 3 
          C14 2 
          TP14 1 

.END
