*********************************************************************************************************
*                                                                                                       *
* Through Hole Bottom Report                                                                            *
*                                                                                                       *
* E:\SENZOPT_ALL\HW_PROJECTS\SIRIUS_PROJECT\PARKING SENSOR\PARKING-SENSOR-V2.13\LAYOUT\HON-PS-0-BB.MAX  *
* Sat Aug 31 13:28:02 2019                                                                              *
*                                                                                                       *
*********************************************************************************************************

 REF DES    VALUE            PACKAGE          FOOTPRINT                      X INSERT   Y INSERT   ROTATION
------------------------------------------------------------------------------------------------------------
No Components of this Type were Found