M48
METRIC
;LEADER: 12 
;HEADER: 
;CODE  : ASCII 
;FILE  : E11 300 000227 01-FINAL_04AUG21_1624hrs-1-2-np.drl for  ... layers TOP and BOTTOM
;DESIGN: E11 300 000227 01-FINAL_04AUG21_1624hrs.brd
;   Holesize 1. = 2.750000 Tolerance = +0.050000/-0.050000 NON_PLATED MM Quantity = 4
%
G90
X0341610Y0308110
X0341610Y5208110
X6141610Y5208110
X6141610Y0308110
M30
