VERSION = 2.0
UUNITS = MILLIMETERS

#    refdes          !   symbol_x !   symbol_y ! rotation ! mirror ! symbol_name                      ! embedded_layer                  
#-----------------------------------------------------------------------------------------------------------------------
A1                   !    18.5315 !    46.9695 !        0 !        ! 2450AT18D0100_A                  !                                 
B1                   !    13.2075 !    35.9660 !        0 !        ! FILTER-BALUNA                    !                                 
C1                   !    13.5720 !    46.1615 !      270 !        ! 0201_STANDARD                    !                                 
C10                  !    20.5900 !    30.7845 !        0 !        ! 0402_XX                          !                                 
C11                  !    19.0745 !    28.3110 !       90 !        ! 0402_XX                          !                                 
C13                  !    19.0685 !    25.8160 !       90 !        ! 0402_XX                          !                                 
C12                  !     8.9161 !    25.6340 !      180 !        ! 0402_XX                          !                                 
C14                  !    23.0625 !    28.0890 !       90 !        ! 0402_XX                          !                                 
C15                  !    13.9185 !    23.3520 !      270 !        ! 0402_XX                          !                                 
C16                  !    14.8015 !    23.3460 !       90 !        ! 0402_XX                          !                                 
C5                   !    19.9787 !    34.1291 !      270 !        ! 0402_XX                          !                                 
C17                  !    11.6980 !    22.2466 !        0 !        ! 0603A_C1                         !                                 
C18                  !     5.5630 !    34.3018 !       90 !        ! 0603A_C1                         !                                 
C19                  !    12.1079 !    11.8175 !       90 !        ! 0603A_C1                         !                                 
C2                   !    15.6680 !    46.1615 !      270 !        ! 0201_STANDARD                    !                                 
C20                  !    16.3255 !    17.5523 !      180 !        ! 0603A_C1                         !                                 
C21                  !    22.5064 !     2.6648 !      180 !        ! B-3216-18NEW1                    !                                 
C3                   !    11.2550 !    37.9885 !      270 !        ! 0201_STANDARD                    !                                 
C4                   !    17.1920 !    35.0005 !      180 !        ! 0402_XX                          !                                 
C6                   !    23.0375 !    30.2228 !      270 !        ! 0402_XX                          !                                 
C7                   !    20.5900 !    31.5655 !        0 !        ! 0402_XX                          !                                 
C8                   !    23.0375 !    32.1970 !      270 !        ! 0402_XX                          !                                 
C9                   !     7.9552 !    30.4688 !       90 !        ! 0402A                            !                                 
D1                   !    27.4400 !     2.6100 !      180 !        ! LED254MM2                        !                                 
D2                   !     9.4600 !     2.6100 !        0 !        ! LED254MM2                        !                                 
J1                   !    18.0328 !     2.2365 !        0 !      m ! CONN2X1254A                      !                                 
J2                   !    18.8004 !     9.3096 !      270 !        ! PYQ1548_NEW4                     !                                 
J3                   !     7.6260 !    17.2389 !      180 !        ! CONN4X1254                       !                                 
J4                   !    28.3212 !    18.2797 !       90 !        ! CONN5X2127SMT                    !                                 
L1                   !    14.6075 !    46.4730 !      180 !        ! 0201_STANDARD                    !                                 
L2                   !    20.5950 !    32.6325 !      180 !        ! 0402_XX                          !                                 
Q1                   !    14.4520 !     3.2352 !       90 !        ! SOT23                            !                                 
R1                   !     8.5943 !    22.2519 !        0 !        ! 0603A_R1                         !                                 
R2                   !     5.5565 !    31.1677 !       90 !        ! 0603A_R1                         !                                 
R3                   !    24.3770 !    13.7988 !        0 !        ! 0603A_R1                         !                                 
R4                   !     9.6734 !    14.6216 !      180 !        ! 0603A_R1                         !                                 
R5                   !     7.1095 !    27.7027 !       90 !        ! 0603A_R1                         !                                 
R6                   !    15.8940 !    23.5512 !       90 !        ! 0402A                            !                                 
R7                   !    16.3304 !    15.7348 !      180 !        ! 0603A_R1                         !                                 
TP1                  !    29.9261 !    15.9237 !        0 !      m ! TPA_PC_                          !                                 
TP10                 !     3.9580 !    27.7684 !        0 !      m ! TPA_PC_                          !                                 
TP11                 !    22.9952 !    25.2171 !        0 !      m ! TPA_PC_                          !                                 
TP12                 !    20.3045 !    28.8711 !        0 !      m ! TPA_PC_                          !                                 
TP13                 !    24.3760 !    30.6881 !        0 !      m ! TPA_PC_                          !                                 
TP14                 !    27.6305 !    25.8396 !        0 !      m ! TPA_PC_                          !                                 
TP15                 !    21.3174 !    15.9391 !        0 !      m ! TPA_PC_                          !                                 
TP2                  !    22.2516 !    34.7500 !        0 !      m ! TPA_PC_                          !                                 
TP3                  !    16.7694 !    15.7722 !        0 !      m ! TPA_PC_                          !                                 
TP4                  !    18.4364 !    21.2751 !        0 !      m ! TPA_PC_                          !                                 
TP5                  !    22.8061 !    20.1934 !        0 !      m ! TPA_PC_                          !                                 
TP6                  !    27.2860 !    20.3414 !        0 !      m ! TPA_PC_                          !                                 
TP7                  !    14.1289 !    19.4941 !        0 !      m ! TPA_PC_                          !                                 
TP8                  !     8.7786 !    22.5057 !        0 !      m ! TPA_PC_                          !                                 
TP9                  !     4.8226 !    32.1949 !        0 !      m ! TPA_PC_                          !                                 
U1                   !    13.1875 !    30.0995 !      180 !        ! 48-PIN-QFNA                      !                                 
Y1                   !    20.7255 !    27.5985 !      270 !        ! XTAL32768SMDA                    !                                 
Y2                   !    25.2270 !    29.1590 !       90 !        ! XTAL_16_SMD                      !                                 
S1                   !    30.5000 !     9.4600 !        0 !      m ! PIR_SW                           !                                 
S2                   !     6.5000 !     9.4600 !        0 !      m ! PIR_SW                           !                                 
MH1                  !    33.0900 !     1.4600 !        0 !        ! MTHOLE_51                        !                                 
MH2                  !     3.9600 !     1.4600 !        0 !        ! MTHOLE_51                        !                                 
R8                   !    25.3951 !     6.9755 !      270 !        ! 0603A_R1                         !                                 
R9                   !    11.9649 !     6.3959 !      270 !        ! 0603A_R1                         !                                 
RF1                  !     4.1415 !    14.0774 !        0 !        ! TPA                              !                                 
RF2                  !     4.1415 !    14.0774 !        0 !      m ! TPA                              !                                 
