VERSION = 2.0
UUNITS = MILLIMETERS

#    refdes          !   symbol_x !   symbol_y ! rotation ! mirror ! symbol_name                      ! embedded_layer                  
#-----------------------------------------------------------------------------------------------------------------------
C33                  !    11.3388 !    29.7942 !        0 !        ! IND_0402                         !                                 
L5                   !    11.7447 !    28.5396 !      270 !        ! C0402                            !                                 
U1                   !    13.2462 !    16.7436 !      180 !        ! QFN_SEGMENT_48                   !                                 
C12                  !    -5.2360 !   -17.5070 !       90 !        ! CAP_TH_10X16MM                   !                                 
C13                  !     9.3813 !   -14.2198 !      180 !        ! CAP_TH_10X16MM                   !                                 
D8                   !    14.9141 !    -3.9550 !      180 !        ! DO-15                            !                                 
SW3                  !    35.5697 !    15.5734 !       90 !        ! SW_EVQ-11U05R_                   !                                 
TP1                  !    -1.5130 !    14.3310 !        0 !      m ! TPA_PC_                          !                                 
TP2                  !   -15.5750 !    15.7360 !        0 !      m ! TPA_PC_                          !                                 
TP3                  !   -23.6560 !    18.6330 !        0 !      m ! TPA_PC_                          !                                 
TP4                  !     7.5700 !    10.2470 !        0 !      m ! TPA_PC_                          !                                 
TP5                  !     4.1080 !    14.3710 !        0 !      m ! TPA_PC_                          !                                 
TP6                  !   -34.1440 !    31.0270 !        0 !      m ! TPA_PC_                          !                                 
TP7                  !    34.5240 !    24.7960 !        0 !      m ! TPA_PC_                          !                                 
TP8                  !    19.7890 !    23.4790 !        0 !      m ! TPA_PC_                          !                                 
MH1                  !   -35.2100 !   -35.2100 !        0 !      m ! MOUNT_HOLE                       !                                 
MH2                  !    35.2100 !   -35.2100 !        0 !      m ! MOUNT_HOLE                       !                                 
MH3                  !    35.2100 !    35.2100 !        0 !      m ! MOUNT_HOLE                       !                                 
MH4                  !   -35.2100 !    35.2100 !        0 !      m ! MOUNT_HOLE                       !                                 
RF1                  !   -35.9079 !   -30.4960 !        0 !        ! RF_SMD_                          !                                 
RF2                  !    35.6620 !   -30.4960 !        0 !      m ! RF_SMD_                          !                                 
C68                  !   -28.2380 !    30.9240 !      270 !      m ! C0402                            !                                 
C14                  !    18.1020 !     4.3390 !      270 !      m ! C0805                            !                                 
C45                  !    17.2465 !     1.1992 !      180 !      m ! C0805                            !                                 
C63                  !    20.7570 !     6.0260 !        0 !      m ! C0603                            !                                 
C64                  !    24.6180 !     6.0470 !      180 !      m ! C0603                            !                                 
C65                  !    31.0480 !    19.0830 !      180 !      m ! C0603                            !                                 
C66                  !    29.9930 !    15.7410 !       90 !      m ! C0603                            !                                 
C19                  !   -29.5840 !     8.1830 !      180 !      m ! C0603                            !                                 
C36                  !   -33.0260 !     0.7680 !       90 !      m ! C0603                            !                                 
C37                  !   -35.7320 !    -2.9940 !       90 !      m ! C0603                            !                                 
C40                  !   -34.9970 !    -6.2680 !      270 !      m ! C0603                            !                                 
C46                  !    34.9660 !    -5.2870 !       90 !      m ! C0603                            !                                 
C47                  !    35.2460 !    -2.2780 !      270 !      m ! C0603                            !                                 
C61                  !    35.0800 !     6.4520 !      270 !      m ! C0603                            !                                 
C62                  !    34.4200 !     8.9990 !      180 !      m ! C0603                            !                                 
C69                  !   -29.2720 !     4.4120 !       90 !      m ! C0603                            !                                 
C70                  !   -30.1740 !    -3.1390 !      180 !      m ! C0603                            !                                 
C71                  !    29.3090 !    -5.5970 !      270 !      m ! C0603                            !                                 
C72                  !    29.0960 !     7.4920 !      270 !      m ! C0603                            !                                 
C2                   !    16.2020 !     1.4910 !       90 !        ! CAP_TH_2P_8_50X5_50MM            !                                 
C42                  !   -10.8460 !    10.3720 !        0 !        ! CAPPRD200W50D500H1100B           !                                 
C43                  !   -22.1270 !    10.1170 !      180 !        ! CAP_TH_16_50X8_00MM              !                                 
C48                  !   -27.8441 !     5.9883 !       90 !      m ! C0402                            !                                 
C49                  !   -30.0580 !    -0.6410 !      270 !      m ! C0402                            !                                 
C50                  !    27.3080 !     6.9010 !        0 !      m ! C0402                            !                                 
C51                  !    28.8710 !    -3.3490 !      180 !      m ! C0402                            !                                 
C67                  !   -24.4450 !    29.6260 !      180 !      m ! C0402                            !                                 
D10                  !   -15.5310 !    33.0130 !       90 !        ! LED_TH_NEW_5_3X3_0MM             !                                 
D11                  !    -8.5530 !    33.0204 !       90 !        ! LED_TH_NEW_5_3X3_0MM             !                                 
D12                  !    24.4680 !    17.3340 !      270 !      m ! DIO_TPD1E05U06DPYR               !                                 
D17                  !    15.5650 !     7.3960 !       90 !      m ! DIO_TPD1E05U06DPYR               !                                 
D22                  !    30.1690 !    13.0300 !      270 !      m ! DIO_TPD1E05U06DPYR               !                                 
D13                  !   -22.5690 !    32.9900 !       90 !        ! LED_TH_NEW_5_3X3_0MM             !                                 
D18                  !   -32.6490 !     9.3050 !        0 !      m ! DIO_TPD1E05U06DPYR               !                                 
D19                  !   -32.2120 !    -1.7670 !      270 !      m ! DIO_TPD1E05U06DPYR               !                                 
D20                  !    35.3720 !    -7.4240 !      180 !      m ! DIO_TPD1E05U06DPYR               !                                 
D21                  !    33.5075 !     1.9830 !       90 !      m ! DIO_TPD1E05U06DPYR               !                                 
D9                   !   -28.9430 !    23.9060 !        0 !      m ! SOD2513X114N                     !                                 
ISO1                 !   -20.7960 !     2.5902 !       90 !      m ! 6-SMD_GULL_WING                  !                                 
ISO2                 !    22.7030 !    -4.8328 !       90 !      m ! 6-SMD_GULL_WING                  !                                 
ISO3                 !   -11.0860 !    -1.1980 !      270 !        ! DIP762W50P254L483H485Q4          !                                 
J1                   !   -35.2820 !    23.0970 !      270 !        ! EH_CONN_2P_NEW1_7_75X4_05_6      !                                 
J10                  !   -34.1898 !    -0.0905 !      270 !        ! MODULE_6P_23_10X15_00_14_50MM    !                                 
J2                   !    26.9840 !    14.9540 !       90 !        ! 62201021121                      !                                 
J3                   !    35.2863 !    23.0561 !       90 !        ! EH_CONN_2P_NEW1_7_75X4_05_6      !                                 
J4                   !    20.7885 !     7.8216 !        0 !        ! HEADER_4P_10_16X2_54_8_40MM      !                                 
J5                   !   -15.9370 !   -33.2970 !        0 !        ! CON_2P_NEW2_10_00X10_00_7_50MM   !                                 
J6                   !    15.5215 !   -33.2620 !        0 !        ! CON_2P_NEW2_10_00X10_00_7_50MM   !                                 
J8                   !    -3.8395 !   -33.2620 !        0 !        ! CON_2P_NEW2_10_00X10_00_7_50MM   !                                 
J9                   !    34.1968 !     0.0685 !       90 !        ! MODULE_6P_23_10X15_00_14_50MM    !                                 
L6                   !     2.4234 !    35.9923 !        0 !      m ! IND_0402                         !                                 
R30                  !   -18.6100 !    25.4160 !        0 !      m ! R0402_NEW                        !                                 
R47                  !   -18.6070 !    26.4760 !        0 !      m ! R0402_NEW                        !                                 
R48                  !   -18.6030 !    27.4929 !        0 !      m ! R0402_NEW                        !                                 
R49                  !   -18.6030 !    28.5083 !        0 !      m ! R0402_NEW                        !                                 
R31                  !   -24.3390 !    34.4170 !      180 !      m ! R0402_NEW                        !                                 
R50                  !   -29.4240 !     9.7630 !        0 !      m ! R0402_NEW                        !                                 
R51                  !   -31.0500 !     0.9030 !        0 !      m ! R0402_NEW                        !                                 
R52                  !   -35.7670 !    -0.4930 !       90 !      m ! R0402_NEW                        !                                 
R53                  !   -36.0638 !    -6.8856 !      270 !      m ! R0402_NEW                        !                                 
R54                  !    36.0568 !    -4.6200 !       90 !      m ! R0402_NEW                        !                                 
R55                  !    34.1400 !    -1.6880 !       90 !      m ! R0402_NEW                        !                                 
R56                  !    36.1930 !     5.1560 !      270 !      m ! R0402_NEW                        !                                 
R57                  !    32.2690 !     8.9060 !       90 !      m ! R0402_NEW                        !                                 
R58                  !    19.0630 !     9.1548 !      180 !      m ! R0402_NEW                        !                                 
R89                  !    20.8520 !     9.0168 !      180 !      m ! R0402_NEW                        !                                 
R90                  !    30.6620 !    17.8420 !        0 !      m ! R0402_NEW                        !                                 
R91                  !    34.6900 !    15.6750 !      270 !      m ! R0402_NEW                        !                                 
R92                  !   -29.2080 !     6.4390 !        0 !      m ! R0402_NEW                        !                                 
R93                  !   -29.9050 !    -1.9638 !        0 !      m ! R0402_NEW                        !                                 
R94                  !    28.0000 !    -5.9970 !       90 !      m ! R0402_NEW                        !                                 
R95                  !    28.9776 !     5.4990 !      180 !      m ! R0402_NEW                        !                                 
R75                  !    -9.2695 !   -23.5027 !        0 !        ! RES_TH_53X4_6MM                  !                                 
R79                  !   -30.4130 !    32.8530 !        0 !      m ! R0805                            !                                 
R80                  !    26.0915 !    21.9455 !      270 !      m ! R0805                            !                                 
R86                  !   -11.9687 !     5.2905 !      270 !      m ! R0805                            !                                 
SW1                  !   -25.5048 !   -24.5620 !        0 !        ! SW_5P_21_61X7_90_13_20MM_NEW1    !                                 
SW2                  !    25.4470 !   -24.5240 !      180 !        ! SW_5P_21_61X7_90_13_20MM_NEW1    !                                 
T1                   !     0.4720 !    -2.4865 !        0 !        ! EE16                             !                                 
U7                   !   -26.1160 !    29.8390 !      180 !      m ! TSOT-23                          !                                 
U8                   !    -3.0084 !    25.0770 !      180 !      m ! SOIC_14P_4_00X8_75_1_75MM        !                                 
U6                   !   -23.6040 !    25.6620 !       90 !      m ! SOIC-8                           !                                 
B1                   !    13.2450 !    22.9110 !        0 !        ! BALUN_2_NEW_10X1_35_0_9MMV1      !                                 
C1                   !    19.3248 !    15.5652 !      180 !        ! C0402                            !                                 
C10                  !    24.3580 !    21.5540 !      270 !      m ! C0402                            !                                 
C23                  !    27.8030 !    -0.9830 !        0 !      m ! C0402                            !                                 
C8                   !    21.6730 !    19.7620 !       90 !      m ! C0402                            !                                 
C11                  !    19.2700 !    13.6818 !       90 !        ! C0402                            !                                 
C16                  !    19.2577 !    11.7655 !      270 !        ! C0402                            !                                 
C15                  !    16.4150 !    15.9040 !      270 !      m ! C0402                            !                                 
C17                  !    16.5670 !    19.2130 !      270 !      m ! C0402                            !                                 
C18                  !    14.1980 !    11.2230 !        0 !      m ! C0402                            !                                 
C20                  !    12.4230 !    11.2610 !        0 !      m ! C0402                            !                                 
C26                  !     9.7070 !    17.3680 !       90 !      m ! C0402                            !                                 
C27                  !     8.9700 !    12.7110 !       90 !      m ! C0402                            !                                 
C35                  !    11.4980 !    12.2430 !      180 !      m ! C0402                            !                                 
C7                   !    17.3780 !    15.9260 !       90 !      m ! C0402                            !                                 
C29                  !    -9.5110 !    28.0680 !        0 !      m ! C0603                            !                                 
C21                  !   -23.5200 !    15.5580 !      180 !      m ! C0402                            !                                 
C24                  !   -29.3650 !    19.2610 !       90 !      m ! C0402                            !                                 
C25                  !    31.7640 !     2.3270 !        0 !      m ! C0402                            !                                 
C22                  !    -5.2030 !   -10.6600 !       90 !      m ! C1206                            !                                 
C3                   !    21.3560 !    15.5680 !      180 !        ! C0402                            !                                 
C30                  !   -11.1410 !     8.3468 !      180 !      m ! C0805                            !                                 
C31                  !   -32.8830 !    19.8710 !      180 !      m ! C0805                            !                                 
C38                  !    34.6780 !    21.7390 !      180 !      m ! C0805                            !                                 
C41                  !    -9.6120 !    26.2780 !        0 !      m ! C0805                            !                                 
C44                  !   -15.6240 !    25.6900 !      270 !      m ! C0805                            !                                 
C52                  !   -20.5650 !    20.3910 !       90 !      m ! C0805                            !                                 
C32                  !    -9.6006 !    23.9734 !        0 !      m ! C0805                            !                                 
C39                  !     2.8552 !    24.0129 !      180 !      m ! C0805                            !                                 
C34                  !    11.3490 !    27.3249 !        0 !        ! IND_0402                         !                                 
C4                   !     3.8270 !     8.4220 !        0 !      m ! C0805                            !                                 
C5                   !     0.9495 !    11.8960 !      180 !        ! CAP_TH_13_00X6_3MM               !                                 
C6                   !    -9.4324 !    16.1466 !      180 !        ! CAP_TH_13_00X6_3MM               !                                 
C28                  !   -28.0350 !    27.7990 !        0 !      m ! C0402                            !                                 
C53                  !   -18.6350 !    24.1350 !      180 !      m ! C0402                            !                                 
C54                  !   -18.6270 !    29.5090 !      180 !      m ! C0402                            !                                 
C55                  !   -30.3750 !   -13.1760 !      180 !        ! CAP_2_5PX7_3P_                   !                                 
C56                  !    30.3770 !   -12.8920 !        0 !        ! CAP_2_5PX7_3P_                   !                                 
C57                  !   -32.2080 !    12.9460 !      270 !      m ! C0402                            !                                 
C58                  !   -29.7750 !    15.9715 !      180 !      m ! C0402                            !                                 
C59                  !    35.7530 !     0.3240 !      270 !      m ! C0402                            !                                 
C60                  !    34.6260 !     4.0130 !      270 !      m ! C0402                            !                                 
C9                   !   -14.7660 !     4.2650 !      180 !      m ! C0603                            !                                 
D5                   !    29.1132 !    23.1250 !       90 !      m ! TVS_DO-214AB                     !                                 
D1                   !   -33.0650 !    27.0690 !      180 !      m ! TVS_DO-214AB                     !                                 
D15                  !   -30.3230 !    30.8310 !      180 !      m ! SOD323                           !                                 
D16                  !    27.6800 !    18.9350 !        0 !      m ! SOD323                           !                                 
D6                   !   -20.2880 !    -6.9880 !       90 !        ! DO-15                            !                                 
D7                   !    18.6160 !   -16.3120 !       90 !        ! DO-15                            !                                 
F1                   !     5.8110 !   -30.8930 !      180 !        ! FUSE_8_45_X4_10_7_90MM           !                                 
F2                   !   -29.5510 !   -32.9920 !      270 !        ! FUSE_8_45_X4_10_7_90MM           !                                 
F3                   !    29.5430 !   -32.9890 !      270 !        ! FUSE_8_45_X4_10_7_90MM           !                                 
L1                   !    -2.9090 !    17.2290 !      180 !        ! INDUCTOR_NEW                     !                                 
L7                   !   -15.5760 !    13.6495 !      180 !        ! INDUCTOR_NEW                     !                                 
L12                  !    14.3300 !     7.8680 !        0 !      m ! IND_0402                         !                                 
L14                  !    24.5300 !    15.5890 !      270 !      m ! IND_0402                         !                                 
L10                  !    34.8710 !    -8.5700 !       90 !      m ! IND_0402                         !                                 
L11                  !    34.6480 !     2.4810 !      180 !      m ! IND_0402                         !                                 
L13                  !   -10.6490 !    29.5720 !      180 !      m ! IND_0402                         !                                 
L8                   !   -31.2270 !     9.7100 !      270 !      m ! IND_0402                         !                                 
L9                   !   -33.3400 !    -1.7390 !      270 !      m ! IND_0402                         !                                 
L2                   !    10.6080 !   -22.3990 !        0 !        ! INDUCTOR_NEW                     !                                 
L4                   !     2.8560 !   -19.2900 !        0 !        ! INDUCTOR_NEW                     !                                 
L3                   !    23.5560 !    20.1850 !        0 !      m ! FB_0603_NEW1                     !                                 
Q1                   !   -27.2690 !     3.5610 !      180 !      m ! SOT23                            !                                 
Q10                  !   -20.1288 !   -16.4370 !        0 !        ! TO-220AB                         !                                 
Q11                  !    23.6168 !   -15.0820 !        0 !        ! TO-220AB                         !                                 
Q2                   !    12.1430 !     8.5120 !      180 !      m ! SOT23                            !                                 
Q3                   !   -27.8445 !    17.2047 !       90 !      m ! SOT-23_3P_1_50X3_12_1_20MM_GSD   !                                 
Q4                   !   -33.8070 !    15.6627 !      180 !      m ! SOT-23_3P_1_50X3_12_1_20MM_GSD   !                                 
Q5                   !    31.7660 !     0.2108 !      270 !      m ! SOT-23_3P_1_50X3_12_1_20MM_GSD   !                                 
Q6                   !    26.1930 !     3.1090 !        0 !      m ! SOT-23_3P_1_50X3_12_1_20MM_GSD   !                                 
Q7                   !   -17.5753 !    33.2523 !        0 !      m ! SOT23                            !                                 
Q8                   !   -12.1320 !    32.7380 !      270 !      m ! SOT23                            !                                 
Q9                   !   -25.7060 !    33.1980 !      270 !      m ! SOT23                            !                                 
R1                   !     2.6190 !    -4.2310 !      180 !      m ! R1206                            !                                 
R4                   !    -2.2190 !    -4.2300 !        0 !      m ! R1206                            !                                 
R10                  !   -10.2960 !    21.6713 !      180 !      m ! R0805                            !                                 
R18                  !     2.0020 !    27.1720 !       90 !      m ! R0805                            !                                 
R6                   !   -16.5940 !    12.0248 !        0 !      m ! R0805                            !                                 
R69                  !    -7.1244 !    13.0140 !       90 !      m ! R0805                            !                                 
R7                   !   -15.1660 !     9.8337 !      180 !      m ! R0805                            !                                 
R11                  !   -10.2870 !    19.3690 !      180 !      m ! R0805                            !                                 
R19                  !     2.8447 !    21.7060 !        0 !      m ! R0805                            !                                 
R46                  !   -10.9640 !     0.7750 !        0 !      m ! R0805                            !                                 
R70                  !   -20.4730 !    14.9480 !        0 !      m ! R0805                            !                                 
R12                  !    -5.7327 !    19.3984 !      180 !      m ! R0805                            !                                 
R20                  !     3.2390 !    19.3980 !      180 !      m ! R0805                            !                                 
R13                  !   -34.7780 !    23.2960 !        0 !      m ! R0805                            !                                 
R22                  !    34.6340 !    19.3920 !      180 !      m ! R0805                            !                                 
R23                  !   -22.5780 !    29.1430 !      270 !      m ! R0402_NEW                        !                                 
R25                  !   -21.3420 !    29.3350 !      270 !      m ! R0402_NEW                        !                                 
R27                  !   -27.5860 !    26.4240 !      270 !      m ! R0402_NEW                        !                                 
R14                  !     9.9840 !    11.8070 !       90 !      m ! R0402_NEW                        !                                 
R29                  !    33.0650 !    -1.4570 !       90 !      m ! R0402_NEW                        !                                 
R32                  !    32.3030 !    10.6780 !      270 !      m ! R0402_NEW                        !                                 
R33                  !   -36.0680 !    -8.5964 !       90 !      m ! R0402_NEW                        !                                 
R34                  !   -28.9840 !     0.3540 !       90 !      m ! R0402_NEW                        !                                 
R81                  !   -27.4180 !     1.5230 !      180 !      m ! R0402_NEW                        !                                 
R82                  !    10.3650 !     8.0050 !      270 !      m ! R0402_NEW                        !                                 
R83                  !   -14.1334 !    33.9694 !      270 !      m ! R0402_NEW                        !                                 
R84                  !    -7.0930 !    34.1280 !      270 !      m ! R0402_NEW                        !                                 
R85                  !   -20.8870 !    33.9320 !      270 !      m ! R0402_NEW                        !                                 
R24                  !   -19.3414 !    32.7990 !       90 !      m ! R0402_NEW                        !                                 
R26                  !   -10.2250 !    34.3950 !      180 !      m ! R0402_NEW                        !                                 
R15                  !    31.8820 !    12.7900 !      180 !      m ! R0402_NEW                        !                                 
R5                   !   -25.8440 !     4.3343 !      180 !      m ! R0402_NEW                        !                                 
R9                   !    23.8490 !     2.0300 !       90 !      m ! R0402_NEW                        !                                 
R17                  !   -30.6250 !    34.4508 !      180 !      m ! R0603                            !                                 
R28                  !    25.4265 !    24.5010 !        0 !      m ! R0603                            !                                 
R2                   !    -0.1850 !     8.4040 !        0 !      m ! R0805                            !                                 
R21                  !   -27.5590 !    34.4492 !      180 !      m ! R0603                            !                                 
R59                  !    25.4315 !    25.8650 !      180 !      m ! R0603                            !                                 
R3                   !   -27.4210 !     0.4740 !        0 !      m ! R0402_NEW                        !                                 
R76                  !   -14.1334 !    32.2591 !      270 !      m ! R0402_NEW                        !                                 
R77                  !    -6.9930 !    32.2880 !      270 !      m ! R0402_NEW                        !                                 
R78                  !   -20.7114 !    32.5290 !        0 !      m ! R0402_NEW                        !                                 
R8                   !     9.2420 !     8.0330 !       90 !      m ! R0402_NEW                        !                                 
R35                  !    -1.7380 !    32.9470 !      180 !      m ! R0805                            !                                 
R36                  !     2.0080 !    31.1910 !       90 !      m ! R0805                            !                                 
R37                  !   -25.2900 !    15.7920 !      270 !      m ! R0402_NEW                        !                                 
R38                  !   -34.0214 !    18.2062 !      180 !      m ! R0402_NEW                        !                                 
R39                  !    29.0940 !     0.9880 !      270 !      m ! R0402_NEW                        !                                 
R41                  !    34.7350 !     1.2420 !       90 !      m ! R0402_NEW                        !                                 
R42                  !    36.1850 !     3.4340 !      270 !      m ! R0402_NEW                        !                                 
R43                  !   -28.9956 !    14.6269 !      270 !      m ! R0402_NEW                        !                                 
R44                  !   -31.7276 !    14.3482 !        0 !      m ! R0402_NEW                        !                                 
R40                  !    27.5150 !     0.5220 !        0 !      m ! R0402_NEW                        !                                 
R45                  !     4.8610 !   -17.0550 !      180 !      m ! R0805                            !                                 
R60                  !   -35.4310 !   -16.2730 !      270 !        ! RES_TH_2_4DX6_3H                 !                                 
R61                  !    35.8860 !   -16.1550 !      270 !        ! RES_TH_2_4DX6_3H                 !                                 
R62                  !   -23.4460 !    -6.9580 !      270 !        ! RES_TH_3_5DX9_0H                 !                                 
R63                  !    15.5500 !   -17.0100 !      270 !        ! RES_TH_3_5DX9_0H                 !                                 
R64                  !   -16.5740 !   -16.4730 !       90 !      m ! R1206                            !                                 
R65                  !    20.9330 !   -15.0880 !       90 !      m ! R1206                            !                                 
R66                  !    -4.5830 !    14.1070 !      270 !      m ! R0805                            !                                 
R67                  !   -20.5125 !    12.6170 !      180 !      m ! R0805                            !                                 
R68                  !    21.2640 !     3.3790 !        0 !      m ! R0805                            !                                 
R87                  !   -23.7430 !    21.7050 !      180 !      m ! R0805                            !                                 
R71                  !   -26.7990 !     5.9474 !      270 !      m ! R0402_NEW                        !                                 
R72                  !   -31.1300 !    -0.5990 !       90 !      m ! R0402_NEW                        !                                 
R73                  !    28.8900 !    -2.1290 !        0 !      m ! R0402_NEW                        !                                 
R74                  !    27.2720 !     5.6411 !      180 !      m ! R0402_NEW                        !                                 
R88                  !    -7.1350 !     8.2840 !      180 !      m ! R0805                            !                                 
RV1                  !     1.8770 !   -24.2040 !        0 !        ! VAR_NEW_12_50X6_50_16_00MM       !                                 
RV2                  !   -30.1935 !   -17.8336 !        0 !        ! VAR_NEW_12_50X6_50_16_00MM       !                                 
RV3                  !    30.8350 !   -17.8292 !      180 !        ! VAR_NEW_12_50X6_50_16_00MM       !                                 
SH1                  !    14.3970 !    18.1149 !        0 !        ! SH1165X165_NEW1                  !                                 
U2                   !    -0.5866 !   -12.1762 !       90 !      m ! SO_7P_4_90X3_90_1_65MM           !                                 
U3                   !   -14.8820 !     6.7680 !      270 !      m ! SOT95P237X112-3N                 !                                 
U4                   !    11.1995 !     3.4890 !       90 !      m ! SOT_223_4P_6_70X3_7_1_6MM        !                                 
U5                   !   -17.0775 !    21.0650 !       90 !      m ! VREG_L78L12ABUTR                 !                                 
Y1                   !    20.2210 !    18.2789 !      270 !        ! CRYS_4P_NEW2_3_35X2_65_0_6MM     !                                 
Y2                   !    21.0150 !    12.8112 !       90 !        ! CRYS_2P_3_3X1_6_0_85MM           !                                 
R16                  !    11.7510 !    25.1340 !      270 !        ! C0402                            !                                 
A1                   !    19.3515 !    33.0550 !        0 !        ! ANT_2P_NEW_9_70X2_20_1_30MM      !                                 
D14                  !    -7.4620 !     6.0750 !      270 !        ! DO-41_NEW1                       !                                 
D3                   !     1.6820 !     6.0715 !       90 !        ! DO-41_NEW1                       !                                 
D4                   !    13.1021 !    -7.3200 !       90 !        ! DO-41_NEW1                       !                                 
D2                   !   -11.1045 !   -16.9178 !        0 !      m ! DIODE_4P_8_51X6_50_2_60MM        !                                 
