M48
;Layer_Color=9474304
;FILE_FORMAT=2:5
INCH,LZ
;TYPE=PLATED
T6F00S00C0.07874
;TYPE=NON_PLATED
%
G90
G05
T06
G00X0055262Y007004
M15
G01X005605
M16
G00X007101Y007004
M15
G01X0071798
M16
G00X0086758Y007
M15
G01X0087546
M16
G00X0102506Y007
M15
G01X0103294
M16
G00X0134002Y007
M15
G01X013479
M16
G00X014975Y007
M15
G01X0150538
M16
M17
M30
