G04 Generated by UcamX,v2019.04-190430 on 2020.12.2*
%FSLAX26Y26*%
%MOIN*%
%ADD10C,0.008000*%
%ADD11C,0.010000*%
%ADD12C,0.043307*%
%ADD13C,0.062992*%
%ADD14C,0.118110*%
%SRX1Y1I0.000000J0.000000*%
G04 layer name: E1120200027700-1-4_drl*
%LPD*%
D10*
X1348472Y965028D03*
X1730724Y109260D03*
X1329354Y978071D03*
X1730929Y798709D03*
X1542390Y996965D03*
X1509543Y787476D03*
X1364953Y617819D03*
X1252642Y1002469D03*
X1506602Y858130D03*
X1609291Y745646D03*
X1574331Y838835D03*
X1596421Y797382D03*
X1212965Y624378D03*
X1240665Y618543D03*
X1159559Y1152268D03*
X1344906Y590846D03*
X1329445Y1285457D03*
X1523850Y737787D03*
X1593882Y1168311D03*
X1545949Y716350D03*
X1675598Y294650D03*
X1408823Y611441D03*
X1385362Y605791D03*
X1290598Y595945D03*
X886654Y165283D03*
X1043713D03*
X1263992Y604331D03*
X1036606Y238843D03*
X886437Y248917D03*
X1201138Y963642D03*
X840083Y208906D03*
X1286654Y165453D03*
Y248031D03*
X1230154Y973598D03*
X956634Y211976D03*
X1503713Y880949D03*
X978587Y630433D03*
X1083299Y855732D03*
X1044220Y817382D03*
X751291Y614252D03*
X451189Y794701D03*
X419693Y795795D03*
X451189Y676807D03*
X419693Y675528D03*
X1328744Y472854D03*
X794657Y175425D03*
X1685280Y206189D03*
X1680591Y77555D03*
X1506488Y937571D03*
X1478461Y936563D03*
X786654Y1227244D03*
X92024Y1013031D03*
X90146Y843102D03*
X521638Y660913D03*
X355480Y664335D03*
X329535Y527626D03*
X177165Y376185D03*
X668504Y660937D03*
X895693Y684224D03*
X1026913Y678165D03*
X1565343Y817661D03*
X1309980Y619697D03*
X1174539Y819094D03*
X1156992Y706878D03*
X1368874Y954402D03*
X1307449Y971055D03*
X1288882Y994740D03*
X1149417Y923953D03*
X1436299Y611551D03*
X751937Y563717D03*
X1111693Y700370D03*
X783425Y727874D03*
X1339760Y788583D03*
X1418500D03*
X1261020D03*
Y709843D03*
X1339760D03*
X1418500D03*
Y749213D03*
X1379130D03*
Y788583D03*
Y827953D03*
Y867323D03*
X1418500D03*
Y827953D03*
X1339760D03*
X1300390D03*
X1261020D03*
Y867323D03*
X1300390D03*
X1339760D03*
X1300390Y788583D03*
Y749213D03*
X1339760D03*
X1261020D03*
X1300390Y709843D03*
X1379130D03*
X759803Y727874D03*
X807047D03*
Y751496D03*
X783425D03*
X759803D03*
Y704252D03*
X783425D03*
X807047D03*
X606496Y636457D03*
Y675827D03*
Y597087D03*
Y557717D03*
Y872677D03*
Y912047D03*
Y833307D03*
Y793937D03*
Y1108898D03*
Y1148268D03*
Y1069528D03*
Y1030157D03*
Y1307717D03*
Y1358898D03*
Y1268346D03*
X645866Y1358898D03*
X685236D03*
X871555Y1365929D03*
X923949Y1368547D03*
X823094Y1367673D03*
X1110630Y1368559D03*
X1071260D03*
X1150000D03*
X1348819Y1366980D03*
X1388189D03*
X1309449D03*
X1579724Y1358307D03*
X1540354D03*
X1611220D03*
X1630315Y1307717D03*
Y1339213D03*
X1629331Y1274311D03*
X1630315Y1076024D03*
Y1115394D03*
Y1036654D03*
Y839803D03*
Y603583D03*
X1631843Y389453D03*
X1579921Y334488D03*
X1361220D03*
X1630315Y879173D03*
Y800433D03*
Y642953D03*
Y564213D03*
Y424252D03*
Y345512D03*
X1540551Y334488D03*
X1400591D03*
X606496Y385079D03*
X645831Y333350D03*
X606496Y424449D03*
X691028Y333717D03*
X621654Y334488D03*
X606496Y349646D03*
X1449925Y1014295D03*
X136020Y1070630D03*
X131512Y1046260D03*
X109496Y1037925D03*
X108500Y987630D03*
X129181Y977559D03*
Y953937D03*
Y930315D03*
Y906693D03*
Y883071D03*
X111114Y868835D03*
X106244Y816157D03*
X127366Y801350D03*
Y777728D03*
Y754106D03*
Y730484D03*
Y706862D03*
Y683240D03*
X136591Y657894D03*
Y634272D03*
Y610650D03*
Y587028D03*
Y563406D03*
X145642Y541287D03*
X162677Y524650D03*
X181295Y507220D03*
X202685Y494543D03*
X213571Y471972D03*
X188091Y347437D03*
X212634Y339370D03*
X236504Y335335D03*
X260374Y334996D03*
X285551Y335429D03*
X309173D03*
X332795D03*
X356417D03*
X380039D03*
X202583Y1069453D03*
X207024Y1041634D03*
X207870Y1014213D03*
X208980Y984654D03*
Y961031D03*
Y937409D03*
Y913787D03*
X210949Y890165D03*
X207157Y866854D03*
X207437Y843283D03*
Y819661D03*
X212039Y795421D03*
Y771799D03*
X236744D03*
X260366D03*
X283988D03*
X307610D03*
X331980Y775343D03*
X355602D03*
X379224D03*
X483406Y778780D03*
X508551Y775886D03*
X532173D03*
X555795D03*
X214760Y704622D03*
X238382D03*
X262004D03*
X285626D03*
X309248D03*
X388567Y694693D03*
X487236Y697311D03*
X561024Y675138D03*
X562835Y698657D03*
X211866Y677815D03*
X203177Y654878D03*
Y631256D03*
Y607634D03*
Y584012D03*
X297217Y496142D03*
Y473142D03*
Y450142D03*
Y421626D03*
X417728Y418949D03*
X441350D03*
X464972D03*
X460886Y346098D03*
X488079Y384602D03*
X1057882Y971654D03*
X879382Y799047D03*
X901972Y794713D03*
X929854Y798449D03*
X952854D03*
X975854D03*
X998965D03*
X1022480Y794512D03*
X935480Y716831D03*
X959102D03*
X982724D03*
X1064638Y713276D03*
X1089421Y712551D03*
X1133402Y712492D03*
X996362Y649260D03*
X967189Y650441D03*
X994028Y613382D03*
X959697Y614173D03*
X998528Y479346D03*
X997937Y449382D03*
X1530209Y1050409D03*
X212976Y447610D03*
X208846Y421673D03*
X320276Y421626D03*
X344346Y419689D03*
X367969D03*
X391591D03*
X224469Y571012D03*
X248091D03*
X271713D03*
X292602Y557941D03*
X450465Y325252D03*
X194594Y403346D03*
X376543Y304744D03*
X353008Y303567D03*
X329303Y303232D03*
X303921Y302559D03*
X278197Y303063D03*
X254327Y302055D03*
X1391181Y1057126D03*
X449835Y301996D03*
X473370Y303004D03*
X497075Y302335D03*
X520776Y302669D03*
X544398Y302843D03*
X569535Y302587D03*
X592398Y302335D03*
X617276Y302000D03*
X642154Y302839D03*
X668043Y302165D03*
X695276D03*
X718437Y302516D03*
X230457Y302728D03*
X204902Y303736D03*
X177343D03*
X149783D03*
X122224D03*
X94665D03*
X67106D03*
X39547D03*
X379429Y1356547D03*
X458169D03*
X536909D03*
X379429Y1277807D03*
X458169D03*
X536909D03*
X379429Y1199067D03*
X458169D03*
X536909D03*
X379429Y1120327D03*
X458169D03*
X536909D03*
X379429Y1041587D03*
X458169D03*
X536909D03*
X379429Y962846D03*
X458169D03*
X536909D03*
X379429Y884106D03*
X458169D03*
X536909D03*
X379429Y805366D03*
X536909D03*
X300689D03*
Y962846D03*
Y884106D03*
Y1041587D03*
X261319Y805366D03*
Y962846D03*
Y884106D03*
Y1041587D03*
X455252Y611500D03*
X376512D03*
X455252Y532760D03*
X376512D03*
X533992Y611500D03*
Y532760D03*
X53346Y429752D03*
Y351012D03*
X132087Y429752D03*
Y351012D03*
X53346Y508492D03*
X132087D03*
X54803Y595945D03*
Y753425D03*
Y674685D03*
X376500Y468138D03*
X455240D03*
X533980D03*
X1090906Y663016D03*
X1055917Y623654D03*
X956394Y972835D03*
X136020Y1098189D03*
X202583Y1097012D03*
X136020Y1125748D03*
X202583Y1124571D03*
X136020Y1153307D03*
X202583Y1152130D03*
X100681Y1199051D03*
X94791Y1229413D03*
X100681Y1257685D03*
X149575Y1302650D03*
X119087Y1286110D03*
X187276Y1303236D03*
X215551Y1290866D03*
X236169Y1264358D03*
X245594Y1237260D03*
X243827Y1210752D03*
X231457Y1186012D03*
X1503020Y907346D03*
X1348472Y2463768D03*
X1730724Y1608000D03*
X1329354Y2476811D03*
X1730929Y2297449D03*
X1542390Y2495705D03*
X1509543Y2286217D03*
X1364953Y2116559D03*
X1252642Y2501209D03*
X1506602Y2356870D03*
X1609291Y2244386D03*
X1574331Y2337575D03*
X1596421Y2296122D03*
X1212965Y2123118D03*
X1240665Y2117283D03*
X1159559Y2651008D03*
X1344906Y2089587D03*
X1329445Y2784197D03*
X1523850Y2236528D03*
X1593882Y2667051D03*
X1545949Y2215091D03*
X1675598Y1793390D03*
X1408823Y2110181D03*
X1385362Y2104531D03*
X1290598Y2094685D03*
X886654Y1664024D03*
X1043713D03*
X1263992Y2103071D03*
X1036606Y1737583D03*
X886437Y1747657D03*
X1201138Y2462382D03*
X840083Y1707646D03*
X1286654Y1664193D03*
Y1746772D03*
X1230154Y2472339D03*
X956634Y1710717D03*
X1503713Y2379689D03*
X978587Y2129173D03*
X1083299Y2354472D03*
X1044220Y2316122D03*
X751291Y2112992D03*
X451189Y2293441D03*
X419693Y2294535D03*
X451189Y2175547D03*
X419693Y2174268D03*
X1328744Y1971594D03*
X794657Y1674165D03*
X1685280Y1704929D03*
X1680591Y1576295D03*
X1506488Y2436311D03*
X1478461Y2435303D03*
X786654Y2725984D03*
X92024Y2511772D03*
X90146Y2341843D03*
X521638Y2159654D03*
X355480Y2163075D03*
X329535Y2026366D03*
X177165Y1874925D03*
X668504Y2159677D03*
X895693Y2182965D03*
X1026913Y2176906D03*
X1565343Y2316402D03*
X1309980Y2118437D03*
X1174539Y2317835D03*
X1156992Y2205618D03*
X1368874Y2453142D03*
X1307449Y2469795D03*
X1288882Y2493480D03*
X1149417Y2422693D03*
X1436299Y2110291D03*
X751937Y2062457D03*
X1111693Y2199110D03*
X783425Y2226614D03*
X1339760Y2287323D03*
X1418500D03*
X1261020D03*
Y2208583D03*
X1339760D03*
X1418500D03*
Y2247953D03*
X1379130D03*
Y2287323D03*
Y2326693D03*
Y2366063D03*
X1418500D03*
Y2326693D03*
X1339760D03*
X1300390D03*
X1261020D03*
Y2366063D03*
X1300390D03*
X1339760D03*
X1300390Y2287323D03*
Y2247953D03*
X1339760D03*
X1261020D03*
X1300390Y2208583D03*
X1379130D03*
X759803Y2226614D03*
X807047D03*
Y2250236D03*
X783425D03*
X759803D03*
Y2202992D03*
X783425D03*
X807047D03*
X606496Y2135197D03*
Y2174567D03*
Y2095827D03*
Y2056457D03*
Y2371417D03*
Y2410787D03*
Y2332047D03*
Y2292677D03*
Y2607638D03*
Y2647008D03*
Y2568268D03*
Y2528898D03*
Y2806457D03*
Y2857638D03*
Y2767087D03*
X645866Y2857638D03*
X685236D03*
X871555Y2864669D03*
X923949Y2867287D03*
X823094Y2866413D03*
X1110630Y2867299D03*
X1071260D03*
X1150000D03*
X1348819Y2865720D03*
X1388189D03*
X1309449D03*
X1579724Y2857047D03*
X1540354D03*
X1611220D03*
X1630315Y2806457D03*
Y2837953D03*
X1629331Y2773051D03*
X1630315Y2574764D03*
Y2614134D03*
Y2535394D03*
Y2338543D03*
Y2102323D03*
X1631843Y1888193D03*
X1579921Y1833228D03*
X1361220D03*
X1630315Y2377913D03*
Y2299173D03*
Y2141693D03*
Y2062953D03*
Y1922992D03*
Y1844252D03*
X1540551Y1833228D03*
X1400591D03*
X606496Y1883819D03*
X645831Y1832091D03*
X606496Y1923189D03*
X691028Y1832457D03*
X621654Y1833228D03*
X606496Y1848386D03*
X1449925Y2513035D03*
X136020Y2569370D03*
X131512Y2545000D03*
X109496Y2536665D03*
X108500Y2486370D03*
X129181Y2476299D03*
Y2452677D03*
Y2429055D03*
Y2405433D03*
Y2381811D03*
X111114Y2367575D03*
X106244Y2314898D03*
X127366Y2300091D03*
Y2276469D03*
Y2252846D03*
Y2229224D03*
Y2205602D03*
Y2181980D03*
X136591Y2156634D03*
Y2133012D03*
Y2109390D03*
Y2085768D03*
Y2062146D03*
X145642Y2040028D03*
X162677Y2023390D03*
X181295Y2005961D03*
X202685Y1993283D03*
X213571Y1970713D03*
X188091Y1846177D03*
X212634Y1838110D03*
X236504Y1834075D03*
X260374Y1833736D03*
X285551Y1834169D03*
X309173D03*
X332795D03*
X356417D03*
X380039D03*
X202583Y2568193D03*
X207024Y2540374D03*
X207870Y2512953D03*
X208980Y2483394D03*
Y2459772D03*
Y2436150D03*
Y2412528D03*
X210949Y2388906D03*
X207157Y2365594D03*
X207437Y2342024D03*
Y2318402D03*
X212039Y2294161D03*
Y2270539D03*
X236744D03*
X260366D03*
X283988D03*
X307610D03*
X331980Y2274083D03*
X355602D03*
X379224D03*
X483406Y2277520D03*
X508551Y2274626D03*
X532173D03*
X555795D03*
X214760Y2203362D03*
X238382D03*
X262004D03*
X285626D03*
X309248D03*
X388567Y2193433D03*
X487236Y2196051D03*
X561024Y2173878D03*
X562835Y2197398D03*
X211866Y2176555D03*
X203177Y2153618D03*
Y2129996D03*
Y2106374D03*
Y2082752D03*
X297217Y1994882D03*
Y1971882D03*
Y1948882D03*
Y1920366D03*
X417728Y1917689D03*
X441350D03*
X464972D03*
X460886Y1844839D03*
X488079Y1883343D03*
X1057882Y2470394D03*
X879382Y2297787D03*
X901972Y2293453D03*
X929854Y2297189D03*
X952854D03*
X975854D03*
X998965D03*
X1022480Y2293252D03*
X935480Y2215571D03*
X959102D03*
X982724D03*
X1064638Y2212016D03*
X1089421Y2211291D03*
X1133402Y2211232D03*
X996362Y2148000D03*
X967189Y2149181D03*
X994028Y2112122D03*
X959697Y2112913D03*
X998528Y1978087D03*
X997937Y1948122D03*
X1530209Y2549150D03*
X212976Y1946350D03*
X208846Y1920413D03*
X320276Y1920366D03*
X344346Y1918429D03*
X367969D03*
X391591D03*
X224469Y2069752D03*
X248091D03*
X271713D03*
X292602Y2056681D03*
X450465Y1823992D03*
X194594Y1902087D03*
X376543Y1803484D03*
X353008Y1802307D03*
X329303Y1801972D03*
X303921Y1801299D03*
X278197Y1801803D03*
X254327Y1800795D03*
X1391181Y2555866D03*
X449835Y1800736D03*
X473370Y1801744D03*
X497075Y1801075D03*
X520776Y1801409D03*
X544398Y1801583D03*
X569535Y1801327D03*
X592398Y1801075D03*
X617276Y1800740D03*
X642154Y1801579D03*
X668043Y1800906D03*
X695276D03*
X718437Y1801256D03*
X230457Y1801469D03*
X204902Y1802476D03*
X177343D03*
X149783D03*
X122224D03*
X94665D03*
X67106D03*
X39547D03*
X379429Y2855287D03*
X458169D03*
X536909D03*
X379429Y2776547D03*
X458169D03*
X536909D03*
X379429Y2697807D03*
X458169D03*
X536909D03*
X379429Y2619067D03*
X458169D03*
X536909D03*
X379429Y2540327D03*
X458169D03*
X536909D03*
X379429Y2461587D03*
X458169D03*
X536909D03*
X379429Y2382846D03*
X458169D03*
X536909D03*
X379429Y2304106D03*
X536909D03*
X300689D03*
Y2461587D03*
Y2382846D03*
Y2540327D03*
X261319Y2304106D03*
Y2461587D03*
Y2382846D03*
Y2540327D03*
X455252Y2110240D03*
X376512D03*
X455252Y2031500D03*
X376512D03*
X533992Y2110240D03*
Y2031500D03*
X53346Y1928492D03*
Y1849752D03*
X132087Y1928492D03*
Y1849752D03*
X53346Y2007232D03*
X132087D03*
X54803Y2094685D03*
Y2252165D03*
Y2173425D03*
X376500Y1966878D03*
X455240D03*
X533980D03*
X1090906Y2161756D03*
X1055917Y2122394D03*
X956394Y2471575D03*
X136020Y2596929D03*
X202583Y2595752D03*
X136020Y2624488D03*
X202583Y2623311D03*
X136020Y2652047D03*
X202583Y2650870D03*
X100681Y2697791D03*
X94791Y2728154D03*
X100681Y2756425D03*
X149575Y2801390D03*
X119087Y2784850D03*
X187276Y2801976D03*
X215551Y2789606D03*
X236169Y2763098D03*
X245594Y2736000D03*
X243827Y2709492D03*
X231457Y2684752D03*
X1503020Y2406087D03*
X1348472Y3962508D03*
X1730724Y3106740D03*
X1329354Y3975551D03*
X1730929Y3796189D03*
X1542390Y3994445D03*
X1509543Y3784957D03*
X1364953Y3615299D03*
X1252642Y3999949D03*
X1506602Y3855610D03*
X1609291Y3743126D03*
X1574331Y3836315D03*
X1596421Y3794862D03*
X1212965Y3621858D03*
X1240665Y3616024D03*
X1159559Y4149748D03*
X1344906Y3588327D03*
X1329445Y4282937D03*
X1523850Y3735268D03*
X1593882Y4165791D03*
X1545949Y3713831D03*
X1675598Y3292130D03*
X1408823Y3608921D03*
X1385362Y3603272D03*
X1290598Y3593425D03*
X886654Y3162764D03*
X1043713D03*
X1263992Y3601811D03*
X1036606Y3236323D03*
X886437Y3246398D03*
X1201138Y3961122D03*
X840083Y3206386D03*
X1286654Y3162933D03*
Y3245512D03*
X1230154Y3971079D03*
X956634Y3209457D03*
X1503713Y3878429D03*
X978587Y3627913D03*
X1083299Y3853213D03*
X1044220Y3814862D03*
X751291Y3611732D03*
X451189Y3792181D03*
X419693Y3793276D03*
X451189Y3674287D03*
X419693Y3673008D03*
X1328744Y3470335D03*
X794657Y3172906D03*
X1685280Y3203669D03*
X1680591Y3075035D03*
X1506488Y3935051D03*
X1478461Y3934043D03*
X786654Y4224724D03*
X92024Y4010512D03*
X90146Y3840583D03*
X521638Y3658394D03*
X355480Y3661815D03*
X329535Y3525106D03*
X177165Y3373665D03*
X668504Y3658417D03*
X895693Y3681705D03*
X1026913Y3675646D03*
X1565343Y3815142D03*
X1309980Y3617177D03*
X1174539Y3816575D03*
X1156992Y3704358D03*
X1368874Y3951882D03*
X1307449Y3968535D03*
X1288882Y3992220D03*
X1149417Y3921433D03*
X1436299Y3609031D03*
X751937Y3561197D03*
X1111693Y3697850D03*
X783425Y3725354D03*
X1339760Y3786063D03*
X1418500D03*
X1261020D03*
Y3707323D03*
X1339760D03*
X1418500D03*
Y3746693D03*
X1379130D03*
Y3786063D03*
Y3825433D03*
Y3864803D03*
X1418500D03*
Y3825433D03*
X1339760D03*
X1300390D03*
X1261020D03*
Y3864803D03*
X1300390D03*
X1339760D03*
X1300390Y3786063D03*
Y3746693D03*
X1339760D03*
X1261020D03*
X1300390Y3707323D03*
X1379130D03*
X759803Y3725354D03*
X807047D03*
Y3748976D03*
X783425D03*
X759803D03*
Y3701732D03*
X783425D03*
X807047D03*
X606496Y3633937D03*
Y3673307D03*
Y3594567D03*
Y3555197D03*
Y3870157D03*
Y3909528D03*
Y3830787D03*
Y3791417D03*
Y4106378D03*
Y4145748D03*
Y4067008D03*
Y4027638D03*
Y4305197D03*
Y4356378D03*
Y4265827D03*
X645866Y4356378D03*
X685236D03*
X871555Y4363409D03*
X923949Y4366028D03*
X823094Y4365154D03*
X1110630Y4366039D03*
X1071260D03*
X1150000D03*
X1348819Y4364461D03*
X1388189D03*
X1309449D03*
X1579724Y4355787D03*
X1540354D03*
X1611220D03*
X1630315Y4305197D03*
Y4336693D03*
X1629331Y4271791D03*
X1630315Y4073504D03*
Y4112874D03*
Y4034134D03*
Y3837283D03*
Y3601063D03*
X1631843Y3386933D03*
X1579921Y3331969D03*
X1361220D03*
X1630315Y3876654D03*
Y3797913D03*
Y3640433D03*
Y3561693D03*
Y3421732D03*
Y3342992D03*
X1540551Y3331969D03*
X1400591D03*
X606496Y3382559D03*
X645831Y3330831D03*
X606496Y3421929D03*
X691028Y3331197D03*
X621654Y3331969D03*
X606496Y3347126D03*
X1449925Y4011776D03*
X136020Y4068110D03*
X131512Y4043740D03*
X109496Y4035406D03*
X108500Y3985110D03*
X129181Y3975039D03*
Y3951417D03*
Y3927795D03*
Y3904173D03*
Y3880551D03*
X111114Y3866315D03*
X106244Y3813638D03*
X127366Y3798831D03*
Y3775209D03*
Y3751587D03*
Y3727965D03*
Y3704343D03*
Y3680720D03*
X136591Y3655374D03*
Y3631752D03*
Y3608130D03*
Y3584508D03*
Y3560886D03*
X145642Y3538768D03*
X162677Y3522130D03*
X181295Y3504701D03*
X202685Y3492024D03*
X213571Y3469453D03*
X188091Y3344917D03*
X212634Y3336850D03*
X236504Y3332815D03*
X260374Y3332476D03*
X285551Y3332909D03*
X309173D03*
X332795D03*
X356417D03*
X380039D03*
X202583Y4066933D03*
X207024Y4039114D03*
X207870Y4011693D03*
X208980Y3982134D03*
Y3958512D03*
Y3934890D03*
Y3911268D03*
X210949Y3887646D03*
X207157Y3864335D03*
X207437Y3840764D03*
Y3817142D03*
X212039Y3792902D03*
Y3769280D03*
X236744D03*
X260366D03*
X283988D03*
X307610D03*
X331980Y3772823D03*
X355602D03*
X379224D03*
X483406Y3776260D03*
X508551Y3773366D03*
X532173D03*
X555795D03*
X214760Y3702102D03*
X238382D03*
X262004D03*
X285626D03*
X309248D03*
X388567Y3692173D03*
X487236Y3694791D03*
X561024Y3672618D03*
X562835Y3696138D03*
X211866Y3675295D03*
X203177Y3652358D03*
Y3628736D03*
Y3605114D03*
Y3581492D03*
X297217Y3493622D03*
Y3470622D03*
Y3447622D03*
Y3419106D03*
X417728Y3416429D03*
X441350D03*
X464972D03*
X460886Y3343579D03*
X488079Y3382083D03*
X1057882Y3969134D03*
X879382Y3796528D03*
X901972Y3792193D03*
X929854Y3795929D03*
X952854D03*
X975854D03*
X998965D03*
X1022480Y3791992D03*
X935480Y3714311D03*
X959102D03*
X982724D03*
X1064638Y3710756D03*
X1089421Y3710031D03*
X1133402Y3709972D03*
X996362Y3646740D03*
X967189Y3647921D03*
X994028Y3610862D03*
X959697Y3611654D03*
X998528Y3476827D03*
X997937Y3446862D03*
X1530209Y4047890D03*
X212976Y3445091D03*
X208846Y3419154D03*
X320276Y3419106D03*
X344346Y3417169D03*
X367969D03*
X391591D03*
X224469Y3568492D03*
X248091D03*
X271713D03*
X292602Y3555421D03*
X450465Y3322732D03*
X194594Y3400827D03*
X376543Y3302224D03*
X353008Y3301047D03*
X329303Y3300713D03*
X303921Y3300039D03*
X278197Y3300543D03*
X254327Y3299535D03*
X1391181Y4054606D03*
X449835Y3299476D03*
X473370Y3300484D03*
X497075Y3299815D03*
X520776Y3300150D03*
X544398Y3300323D03*
X569535Y3300067D03*
X592398Y3299815D03*
X617276Y3299480D03*
X642154Y3300319D03*
X668043Y3299646D03*
X695276D03*
X718437Y3299996D03*
X230457Y3300209D03*
X204902Y3301217D03*
X177343D03*
X149783D03*
X122224D03*
X94665D03*
X67106D03*
X39547D03*
X379429Y4354028D03*
X458169D03*
X536909D03*
X379429Y4275287D03*
X458169D03*
X536909D03*
X379429Y4196547D03*
X458169D03*
X536909D03*
X379429Y4117807D03*
X458169D03*
X536909D03*
X379429Y4039067D03*
X458169D03*
X536909D03*
X379429Y3960327D03*
X458169D03*
X536909D03*
X379429Y3881587D03*
X458169D03*
X536909D03*
X379429Y3802846D03*
X536909D03*
X300689D03*
Y3960327D03*
Y3881587D03*
Y4039067D03*
X261319Y3802846D03*
Y3960327D03*
Y3881587D03*
Y4039067D03*
X455252Y3608980D03*
X376512D03*
X455252Y3530240D03*
X376512D03*
X533992Y3608980D03*
Y3530240D03*
X53346Y3427232D03*
Y3348492D03*
X132087Y3427232D03*
Y3348492D03*
X53346Y3505972D03*
X132087D03*
X54803Y3593425D03*
Y3750906D03*
Y3672165D03*
X376500Y3465618D03*
X455240D03*
X533980D03*
X1090906Y3660496D03*
X1055917Y3621134D03*
X956394Y3970315D03*
X136020Y4095669D03*
X202583Y4094492D03*
X136020Y4123228D03*
X202583Y4122051D03*
X136020Y4150787D03*
X202583Y4149610D03*
X100681Y4196531D03*
X94791Y4226894D03*
X100681Y4255165D03*
X149575Y4300130D03*
X119087Y4283591D03*
X187276Y4300717D03*
X215551Y4288346D03*
X236169Y4261839D03*
X245594Y4234740D03*
X243827Y4208232D03*
X231457Y4183492D03*
X1503020Y3904827D03*
X1348472Y5461248D03*
X1730724Y4605480D03*
X1329354Y5474291D03*
X1730929Y5294929D03*
X1542390Y5493185D03*
X1509543Y5283697D03*
X1364953Y5114039D03*
X1252642Y5498689D03*
X1506602Y5354350D03*
X1609291Y5241866D03*
X1574331Y5335055D03*
X1596421Y5293602D03*
X1212965Y5120598D03*
X1240665Y5114764D03*
X1159559Y5648488D03*
X1344906Y5087067D03*
X1329445Y5781677D03*
X1523850Y5234008D03*
X1593882Y5664531D03*
X1545949Y5212571D03*
X1675598Y4790870D03*
X1408823Y5107661D03*
X1385362Y5102012D03*
X1290598Y5092165D03*
X886654Y4661504D03*
X1043713D03*
X1263992Y5100551D03*
X1036606Y4735063D03*
X886437Y4745138D03*
X1201138Y5459862D03*
X840083Y4705126D03*
X1286654Y4661673D03*
Y4744252D03*
X1230154Y5469819D03*
X956634Y4708197D03*
X1503713Y5377169D03*
X978587Y5126654D03*
X1083299Y5351953D03*
X1044220Y5313602D03*
X751291Y5110472D03*
X451189Y5290921D03*
X419693Y5292016D03*
X451189Y5173028D03*
X419693Y5171748D03*
X1328744Y4969075D03*
X794657Y4671646D03*
X1685280Y4702409D03*
X1680591Y4573776D03*
X1506488Y5433791D03*
X1478461Y5432783D03*
X786654Y5723465D03*
X92024Y5509252D03*
X90146Y5339323D03*
X521638Y5157134D03*
X355480Y5160555D03*
X329535Y5023846D03*
X177165Y4872406D03*
X668504Y5157157D03*
X895693Y5180445D03*
X1026913Y5174386D03*
X1565343Y5313882D03*
X1309980Y5115917D03*
X1174539Y5315315D03*
X1156992Y5203098D03*
X1368874Y5450622D03*
X1307449Y5467276D03*
X1288882Y5490961D03*
X1149417Y5420173D03*
X1436299Y5107772D03*
X751937Y5059937D03*
X1111693Y5196591D03*
X783425Y5224094D03*
X1339760Y5284803D03*
X1418500D03*
X1261020D03*
Y5206063D03*
X1339760D03*
X1418500D03*
Y5245433D03*
X1379130D03*
Y5284803D03*
Y5324173D03*
Y5363543D03*
X1418500D03*
Y5324173D03*
X1339760D03*
X1300390D03*
X1261020D03*
Y5363543D03*
X1300390D03*
X1339760D03*
X1300390Y5284803D03*
Y5245433D03*
X1339760D03*
X1261020D03*
X1300390Y5206063D03*
X1379130D03*
X759803Y5224094D03*
X807047D03*
Y5247717D03*
X783425D03*
X759803D03*
Y5200472D03*
X783425D03*
X807047D03*
X606496Y5132677D03*
Y5172047D03*
Y5093307D03*
Y5053937D03*
Y5368898D03*
Y5408268D03*
Y5329528D03*
Y5290157D03*
Y5605118D03*
Y5644488D03*
Y5565748D03*
Y5526378D03*
Y5803937D03*
Y5855118D03*
Y5764567D03*
X645866Y5855118D03*
X685236D03*
X871555Y5862150D03*
X923949Y5864768D03*
X823094Y5863894D03*
X1110630Y5864780D03*
X1071260D03*
X1150000D03*
X1348819Y5863201D03*
X1388189D03*
X1309449D03*
X1579724Y5854528D03*
X1540354D03*
X1611220D03*
X1630315Y5803937D03*
Y5835433D03*
X1629331Y5770531D03*
X1630315Y5572244D03*
Y5611614D03*
Y5532874D03*
Y5336024D03*
Y5099803D03*
X1631843Y4885673D03*
X1579921Y4830709D03*
X1361220D03*
X1630315Y5375394D03*
Y5296654D03*
Y5139173D03*
Y5060433D03*
Y4920472D03*
Y4841732D03*
X1540551Y4830709D03*
X1400591D03*
X606496Y4881299D03*
X645831Y4829571D03*
X606496Y4920669D03*
X691028Y4829937D03*
X621654Y4830709D03*
X606496Y4845866D03*
X1449925Y5510516D03*
X136020Y5566850D03*
X131512Y5542480D03*
X109496Y5534146D03*
X108500Y5483850D03*
X129181Y5473780D03*
Y5450157D03*
Y5426535D03*
Y5402913D03*
Y5379291D03*
X111114Y5365055D03*
X106244Y5312378D03*
X127366Y5297571D03*
Y5273949D03*
Y5250327D03*
Y5226705D03*
Y5203083D03*
Y5179461D03*
X136591Y5154114D03*
Y5130492D03*
Y5106870D03*
Y5083248D03*
Y5059626D03*
X145642Y5037508D03*
X162677Y5020870D03*
X181295Y5003441D03*
X202685Y4990764D03*
X213571Y4968193D03*
X188091Y4843657D03*
X212634Y4835591D03*
X236504Y4831555D03*
X260374Y4831217D03*
X285551Y4831650D03*
X309173D03*
X332795D03*
X356417D03*
X380039D03*
X202583Y5565673D03*
X207024Y5537854D03*
X207870Y5510433D03*
X208980Y5480874D03*
Y5457252D03*
Y5433630D03*
Y5410008D03*
X210949Y5386386D03*
X207157Y5363075D03*
X207437Y5339504D03*
Y5315882D03*
X212039Y5291642D03*
Y5268020D03*
X236744D03*
X260366D03*
X283988D03*
X307610D03*
X331980Y5271563D03*
X355602D03*
X379224D03*
X483406Y5275000D03*
X508551Y5272106D03*
X532173D03*
X555795D03*
X214760Y5200843D03*
X238382D03*
X262004D03*
X285626D03*
X309248D03*
X388567Y5190913D03*
X487236Y5193531D03*
X561024Y5171358D03*
X562835Y5194878D03*
X211866Y5174035D03*
X203177Y5151098D03*
Y5127476D03*
Y5103854D03*
Y5080232D03*
X297217Y4992362D03*
Y4969362D03*
Y4946362D03*
Y4917846D03*
X417728Y4915169D03*
X441350D03*
X464972D03*
X460886Y4842319D03*
X488079Y4880823D03*
X1057882Y5467874D03*
X879382Y5295268D03*
X901972Y5290933D03*
X929854Y5294669D03*
X952854D03*
X975854D03*
X998965D03*
X1022480Y5290732D03*
X935480Y5213051D03*
X959102D03*
X982724D03*
X1064638Y5209496D03*
X1089421Y5208772D03*
X1133402Y5208713D03*
X996362Y5145480D03*
X967189Y5146661D03*
X994028Y5109602D03*
X959697Y5110394D03*
X998528Y4975567D03*
X997937Y4945602D03*
X1530209Y5546630D03*
X212976Y4943831D03*
X208846Y4917894D03*
X320276Y4917846D03*
X344346Y4915909D03*
X367969D03*
X391591D03*
X224469Y5067232D03*
X248091D03*
X271713D03*
X292602Y5054161D03*
X450465Y4821472D03*
X194594Y4899567D03*
X376543Y4800965D03*
X353008Y4799787D03*
X329303Y4799453D03*
X303921Y4798780D03*
X278197Y4799283D03*
X254327Y4798276D03*
X1391181Y5553346D03*
X449835Y4798217D03*
X473370Y4799224D03*
X497075Y4798555D03*
X520776Y4798890D03*
X544398Y4799063D03*
X569535Y4798807D03*
X592398Y4798555D03*
X617276Y4798220D03*
X642154Y4799059D03*
X668043Y4798386D03*
X695276D03*
X718437Y4798736D03*
X230457Y4798949D03*
X204902Y4799957D03*
X177343D03*
X149783D03*
X122224D03*
X94665D03*
X67106D03*
X39547D03*
X379429Y5852768D03*
X458169D03*
X536909D03*
X379429Y5774028D03*
X458169D03*
X536909D03*
X379429Y5695287D03*
X458169D03*
X536909D03*
X379429Y5616547D03*
X458169D03*
X536909D03*
X379429Y5537807D03*
X458169D03*
X536909D03*
X379429Y5459067D03*
X458169D03*
X536909D03*
X379429Y5380327D03*
X458169D03*
X536909D03*
X379429Y5301587D03*
X536909D03*
X300689D03*
Y5459067D03*
Y5380327D03*
Y5537807D03*
X261319Y5301587D03*
Y5459067D03*
Y5380327D03*
Y5537807D03*
X455252Y5107720D03*
X376512D03*
X455252Y5028980D03*
X376512D03*
X533992Y5107720D03*
Y5028980D03*
X53346Y4925972D03*
Y4847232D03*
X132087Y4925972D03*
Y4847232D03*
X53346Y5004713D03*
X132087D03*
X54803Y5092165D03*
Y5249646D03*
Y5170906D03*
X376500Y4964358D03*
X455240D03*
X533980D03*
X1090906Y5159236D03*
X1055917Y5119874D03*
X956394Y5469055D03*
X136020Y5594409D03*
X202583Y5593232D03*
X136020Y5621969D03*
X202583Y5620791D03*
X136020Y5649528D03*
X202583Y5648350D03*
X100681Y5695272D03*
X94791Y5725634D03*
X100681Y5753906D03*
X149575Y5798870D03*
X119087Y5782331D03*
X187276Y5799457D03*
X215551Y5787087D03*
X236169Y5760579D03*
X245594Y5733480D03*
X243827Y5706972D03*
X231457Y5682232D03*
X1503020Y5403567D03*
X1348472Y6959988D03*
X1730724Y6104220D03*
X1329354Y6973031D03*
X1730929Y6793669D03*
X1542390Y6991925D03*
X1509543Y6782437D03*
X1364953Y6612780D03*
X1252642Y6997429D03*
X1506602Y6853091D03*
X1609291Y6740606D03*
X1574331Y6833795D03*
X1596421Y6792343D03*
X1212965Y6619339D03*
X1240665Y6613504D03*
X1159559Y7147228D03*
X1344906Y6585807D03*
X1329445Y7280417D03*
X1523850Y6732748D03*
X1593882Y7163272D03*
X1545949Y6711311D03*
X1675598Y6289610D03*
X1408823Y6606402D03*
X1385362Y6600752D03*
X1290598Y6590906D03*
X886654Y6160244D03*
X1043713D03*
X1263992Y6599291D03*
X1036606Y6233803D03*
X886437Y6243878D03*
X1201138Y6958602D03*
X840083Y6203866D03*
X1286654Y6160413D03*
Y6242992D03*
X1230154Y6968559D03*
X956634Y6206937D03*
X1503713Y6875909D03*
X978587Y6625394D03*
X1083299Y6850693D03*
X1044220Y6812343D03*
X751291Y6609213D03*
X451189Y6789661D03*
X419693Y6790756D03*
X451189Y6671768D03*
X419693Y6670488D03*
X1328744Y6467815D03*
X794657Y6170386D03*
X1685280Y6201150D03*
X1680591Y6072516D03*
X1506488Y6932531D03*
X1478461Y6931524D03*
X786654Y7222205D03*
X92024Y7007992D03*
X90146Y6838063D03*
X521638Y6655874D03*
X355480Y6659295D03*
X329535Y6522587D03*
X177165Y6371146D03*
X668504Y6655898D03*
X895693Y6679185D03*
X1026913Y6673126D03*
X1565343Y6812622D03*
X1309980Y6614657D03*
X1174539Y6814055D03*
X1156992Y6701839D03*
X1368874Y6949362D03*
X1307449Y6966016D03*
X1288882Y6989701D03*
X1149417Y6918913D03*
X1436299Y6606512D03*
X751937Y6558677D03*
X1111693Y6695331D03*
X783425Y6722835D03*
X1339760Y6783543D03*
X1418500D03*
X1261020D03*
Y6704803D03*
X1339760D03*
X1418500D03*
Y6744173D03*
X1379130D03*
Y6783543D03*
Y6822913D03*
Y6862283D03*
X1418500D03*
Y6822913D03*
X1339760D03*
X1300390D03*
X1261020D03*
Y6862283D03*
X1300390D03*
X1339760D03*
X1300390Y6783543D03*
Y6744173D03*
X1339760D03*
X1261020D03*
X1300390Y6704803D03*
X1379130D03*
X759803Y6722835D03*
X807047D03*
Y6746457D03*
X783425D03*
X759803D03*
Y6699213D03*
X783425D03*
X807047D03*
X606496Y6631417D03*
Y6670787D03*
Y6592047D03*
Y6552677D03*
Y6867638D03*
Y6907008D03*
Y6828268D03*
Y6788898D03*
Y7103858D03*
Y7143228D03*
Y7064488D03*
Y7025118D03*
Y7302677D03*
Y7353858D03*
Y7263307D03*
X645866Y7353858D03*
X685236D03*
X871555Y7360890D03*
X923949Y7363508D03*
X823094Y7362634D03*
X1110630Y7363520D03*
X1071260D03*
X1150000D03*
X1348819Y7361941D03*
X1388189D03*
X1309449D03*
X1579724Y7353268D03*
X1540354D03*
X1611220D03*
X1630315Y7302677D03*
Y7334173D03*
X1629331Y7269272D03*
X1630315Y7070984D03*
Y7110354D03*
Y7031614D03*
Y6834764D03*
Y6598543D03*
X1631843Y6384413D03*
X1579921Y6329449D03*
X1361220D03*
X1630315Y6874134D03*
Y6795394D03*
Y6637913D03*
Y6559173D03*
Y6419213D03*
Y6340472D03*
X1540551Y6329449D03*
X1400591D03*
X606496Y6380039D03*
X645831Y6328311D03*
X606496Y6419409D03*
X691028Y6328677D03*
X621654Y6329449D03*
X606496Y6344606D03*
X1449925Y7009256D03*
X136020Y7065591D03*
X131512Y7041220D03*
X109496Y7032886D03*
X108500Y6982591D03*
X129181Y6972520D03*
Y6948898D03*
Y6925276D03*
Y6901654D03*
Y6878031D03*
X111114Y6863795D03*
X106244Y6811118D03*
X127366Y6796311D03*
Y6772689D03*
Y6749067D03*
Y6725445D03*
Y6701823D03*
Y6678201D03*
X136591Y6652854D03*
Y6629232D03*
Y6605610D03*
Y6581988D03*
Y6558366D03*
X145642Y6536248D03*
X162677Y6519610D03*
X181295Y6502181D03*
X202685Y6489504D03*
X213571Y6466933D03*
X188091Y6342398D03*
X212634Y6334331D03*
X236504Y6330295D03*
X260374Y6329957D03*
X285551Y6330390D03*
X309173D03*
X332795D03*
X356417D03*
X380039D03*
X202583Y7064413D03*
X207024Y7036594D03*
X207870Y7009173D03*
X208980Y6979614D03*
Y6955992D03*
Y6932370D03*
Y6908748D03*
X210949Y6885126D03*
X207157Y6861815D03*
X207437Y6838244D03*
Y6814622D03*
X212039Y6790382D03*
Y6766760D03*
X236744D03*
X260366D03*
X283988D03*
X307610D03*
X331980Y6770303D03*
X355602D03*
X379224D03*
X483406Y6773740D03*
X508551Y6770846D03*
X532173D03*
X555795D03*
X214760Y6699583D03*
X238382D03*
X262004D03*
X285626D03*
X309248D03*
X388567Y6689654D03*
X487236Y6692272D03*
X561024Y6670098D03*
X562835Y6693618D03*
X211866Y6672776D03*
X203177Y6649839D03*
Y6626217D03*
Y6602594D03*
Y6578972D03*
X297217Y6491102D03*
Y6468102D03*
Y6445102D03*
Y6416587D03*
X417728Y6413909D03*
X441350D03*
X464972D03*
X460886Y6341059D03*
X488079Y6379563D03*
X1057882Y6966614D03*
X879382Y6794008D03*
X901972Y6789673D03*
X929854Y6793409D03*
X952854D03*
X975854D03*
X998965D03*
X1022480Y6789472D03*
X935480Y6711791D03*
X959102D03*
X982724D03*
X1064638Y6708236D03*
X1089421Y6707512D03*
X1133402Y6707453D03*
X996362Y6644220D03*
X967189Y6645402D03*
X994028Y6608343D03*
X959697Y6609134D03*
X998528Y6474307D03*
X997937Y6444343D03*
X1530209Y7045370D03*
X212976Y6442571D03*
X208846Y6416634D03*
X320276Y6416587D03*
X344346Y6414650D03*
X367969D03*
X391591D03*
X224469Y6565972D03*
X248091D03*
X271713D03*
X292602Y6552902D03*
X450465Y6320213D03*
X194594Y6398307D03*
X376543Y6299705D03*
X353008Y6298528D03*
X329303Y6298193D03*
X303921Y6297520D03*
X278197Y6298024D03*
X254327Y6297016D03*
X1391181Y7052087D03*
X449835Y6296957D03*
X473370Y6297965D03*
X497075Y6297295D03*
X520776Y6297630D03*
X544398Y6297803D03*
X569535Y6297547D03*
X592398Y6297295D03*
X617276Y6296961D03*
X642154Y6297799D03*
X668043Y6297126D03*
X695276D03*
X718437Y6297476D03*
X230457Y6297689D03*
X204902Y6298697D03*
X177343D03*
X149783D03*
X122224D03*
X94665D03*
X67106D03*
X39547D03*
X379429Y7351508D03*
X458169D03*
X536909D03*
X379429Y7272768D03*
X458169D03*
X536909D03*
X379429Y7194028D03*
X458169D03*
X536909D03*
X379429Y7115287D03*
X458169D03*
X536909D03*
X379429Y7036547D03*
X458169D03*
X536909D03*
X379429Y6957807D03*
X458169D03*
X536909D03*
X379429Y6879067D03*
X458169D03*
X536909D03*
X379429Y6800327D03*
X536909D03*
X300689D03*
Y6957807D03*
Y6879067D03*
Y7036547D03*
X261319Y6800327D03*
Y6957807D03*
Y6879067D03*
Y7036547D03*
X455252Y6606461D03*
X376512D03*
X455252Y6527720D03*
X376512D03*
X533992Y6606461D03*
Y6527720D03*
X53346Y6424713D03*
Y6345972D03*
X132087Y6424713D03*
Y6345972D03*
X53346Y6503453D03*
X132087D03*
X54803Y6590906D03*
Y6748386D03*
Y6669646D03*
X376500Y6463098D03*
X455240D03*
X533980D03*
X1090906Y6657976D03*
X1055917Y6618614D03*
X956394Y6967795D03*
X136020Y7093150D03*
X202583Y7091972D03*
X136020Y7120709D03*
X202583Y7119531D03*
X136020Y7148268D03*
X202583Y7147091D03*
X100681Y7194012D03*
X94791Y7224374D03*
X100681Y7252646D03*
X149575Y7297610D03*
X119087Y7281071D03*
X187276Y7298197D03*
X215551Y7285827D03*
X236169Y7259319D03*
X245594Y7232220D03*
X243827Y7205713D03*
X231457Y7180972D03*
X1503020Y6902307D03*
X3224417Y965028D03*
X3606669Y109260D03*
X3205299Y978071D03*
X3606874Y798709D03*
X3418335Y996965D03*
X3385488Y787476D03*
X3240898Y617819D03*
X3128587Y1002469D03*
X3382547Y858130D03*
X3485236Y745646D03*
X3450276Y838835D03*
X3472366Y797382D03*
X3088909Y624378D03*
X3116610Y618543D03*
X3035504Y1152268D03*
X3220850Y590846D03*
X3205390Y1285457D03*
X3399795Y737787D03*
X3469827Y1168311D03*
X3421894Y716350D03*
X3551543Y294650D03*
X3284768Y611441D03*
X3261307Y605791D03*
X3166543Y595945D03*
X2762598Y165283D03*
X2919657D03*
X3139937Y604331D03*
X2912551Y238843D03*
X2762382Y248917D03*
X3077083Y963642D03*
X2716028Y208906D03*
X3162598Y165453D03*
Y248031D03*
X3106098Y973598D03*
X2832579Y211976D03*
X3379657Y880949D03*
X2854531Y630433D03*
X2959244Y855732D03*
X2920165Y817382D03*
X2627236Y614252D03*
X2327134Y794701D03*
X2295638Y795795D03*
X2327134Y676807D03*
X2295638Y675528D03*
X3204689Y472854D03*
X2670602Y175425D03*
X3561224Y206189D03*
X3556535Y77555D03*
X3382433Y937571D03*
X3354406Y936563D03*
X2662598Y1227244D03*
X1967969Y1013031D03*
X1966091Y843102D03*
X2397583Y660913D03*
X2231425Y664335D03*
X2205480Y527626D03*
X2053110Y376185D03*
X2544449Y660937D03*
X2771638Y684224D03*
X2902858Y678165D03*
X3441287Y817661D03*
X3185925Y619697D03*
X3050484Y819094D03*
X3032937Y706878D03*
X3244819Y954402D03*
X3183394Y971055D03*
X3164827Y994740D03*
X3025362Y923953D03*
X3312244Y611551D03*
X2627882Y563717D03*
X2987638Y700370D03*
X2659370Y727874D03*
X3215705Y788583D03*
X3294445D03*
X3136965D03*
Y709843D03*
X3215705D03*
X3294445D03*
Y749213D03*
X3255075D03*
Y788583D03*
Y827953D03*
Y867323D03*
X3294445D03*
Y827953D03*
X3215705D03*
X3176335D03*
X3136965D03*
Y867323D03*
X3176335D03*
X3215705D03*
X3176335Y788583D03*
Y749213D03*
X3215705D03*
X3136965D03*
X3176335Y709843D03*
X3255075D03*
X2635748Y727874D03*
X2682992D03*
Y751496D03*
X2659370D03*
X2635748D03*
Y704252D03*
X2659370D03*
X2682992D03*
X2482441Y636457D03*
Y675827D03*
Y597087D03*
Y557717D03*
Y872677D03*
Y912047D03*
Y833307D03*
Y793937D03*
Y1108898D03*
Y1148268D03*
Y1069528D03*
Y1030157D03*
Y1307717D03*
Y1358898D03*
Y1268346D03*
X2521811Y1358898D03*
X2561181D03*
X2747500Y1365929D03*
X2799894Y1368547D03*
X2699039Y1367673D03*
X2986575Y1368559D03*
X2947205D03*
X3025945D03*
X3224764Y1366980D03*
X3264134D03*
X3185394D03*
X3455669Y1358307D03*
X3416299D03*
X3487165D03*
X3506260Y1307717D03*
Y1339213D03*
X3505276Y1274311D03*
X3506260Y1076024D03*
Y1115394D03*
Y1036654D03*
Y839803D03*
Y603583D03*
X3507787Y389453D03*
X3455866Y334488D03*
X3237165D03*
X3506260Y879173D03*
Y800433D03*
Y642953D03*
Y564213D03*
Y424252D03*
Y345512D03*
X3416496Y334488D03*
X3276535D03*
X2482441Y385079D03*
X2521776Y333350D03*
X2482441Y424449D03*
X2566972Y333717D03*
X2497598Y334488D03*
X2482441Y349646D03*
X3325870Y1014295D03*
X2011965Y1070630D03*
X2007457Y1046260D03*
X1985441Y1037925D03*
X1984445Y987630D03*
X2005126Y977559D03*
Y953937D03*
Y930315D03*
Y906693D03*
Y883071D03*
X1987059Y868835D03*
X1982189Y816157D03*
X2003311Y801350D03*
Y777728D03*
Y754106D03*
Y730484D03*
Y706862D03*
Y683240D03*
X2012535Y657894D03*
Y634272D03*
Y610650D03*
Y587028D03*
Y563406D03*
X2021587Y541287D03*
X2038622Y524650D03*
X2057240Y507220D03*
X2078630Y494543D03*
X2089516Y471972D03*
X2064035Y347437D03*
X2088579Y339370D03*
X2112449Y335335D03*
X2136319Y334996D03*
X2161496Y335429D03*
X2185118D03*
X2208740D03*
X2232362D03*
X2255984D03*
X2078528Y1069453D03*
X2082969Y1041634D03*
X2083815Y1014213D03*
X2084925Y984654D03*
Y961031D03*
Y937409D03*
Y913787D03*
X2086894Y890165D03*
X2083102Y866854D03*
X2083382Y843283D03*
Y819661D03*
X2087984Y795421D03*
Y771799D03*
X2112689D03*
X2136311D03*
X2159933D03*
X2183555D03*
X2207925Y775343D03*
X2231547D03*
X2255169D03*
X2359350Y778780D03*
X2384496Y775886D03*
X2408118D03*
X2431740D03*
X2090705Y704622D03*
X2114327D03*
X2137949D03*
X2161571D03*
X2185193D03*
X2264512Y694693D03*
X2363181Y697311D03*
X2436969Y675138D03*
X2438780Y698657D03*
X2087811Y677815D03*
X2079122Y654878D03*
Y631256D03*
Y607634D03*
Y584012D03*
X2173161Y496142D03*
Y473142D03*
Y450142D03*
Y421626D03*
X2293673Y418949D03*
X2317295D03*
X2340917D03*
X2336831Y346098D03*
X2364024Y384602D03*
X2933827Y971654D03*
X2755327Y799047D03*
X2777917Y794713D03*
X2805799Y798449D03*
X2828799D03*
X2851799D03*
X2874909D03*
X2898425Y794512D03*
X2811425Y716831D03*
X2835047D03*
X2858669D03*
X2940583Y713276D03*
X2965366Y712551D03*
X3009346Y712492D03*
X2872307Y649260D03*
X2843134Y650441D03*
X2869972Y613382D03*
X2835642Y614173D03*
X2874472Y479346D03*
X2873882Y449382D03*
X3406154Y1050409D03*
X2088921Y447610D03*
X2084791Y421673D03*
X2196220Y421626D03*
X2220291Y419689D03*
X2243913D03*
X2267535D03*
X2100413Y571012D03*
X2124035D03*
X2147657D03*
X2168547Y557941D03*
X2326409Y325252D03*
X2070539Y403346D03*
X2252488Y304744D03*
X2228953Y303567D03*
X2205248Y303232D03*
X2179866Y302559D03*
X2154142Y303063D03*
X2130272Y302055D03*
X3267126Y1057126D03*
X2325780Y301996D03*
X2349315Y303004D03*
X2373020Y302335D03*
X2396720Y302669D03*
X2420343Y302843D03*
X2445480Y302587D03*
X2468343Y302335D03*
X2493220Y302000D03*
X2518098Y302839D03*
X2543988Y302165D03*
X2571220D03*
X2594382Y302516D03*
X2106402Y302728D03*
X2080846Y303736D03*
X2053287D03*
X2025728D03*
X1998169D03*
X1970610D03*
X1943051D03*
X1915492D03*
X2255374Y1356547D03*
X2334114D03*
X2412854D03*
X2255374Y1277807D03*
X2334114D03*
X2412854D03*
X2255374Y1199067D03*
X2334114D03*
X2412854D03*
X2255374Y1120327D03*
X2334114D03*
X2412854D03*
X2255374Y1041587D03*
X2334114D03*
X2412854D03*
X2255374Y962846D03*
X2334114D03*
X2412854D03*
X2255374Y884106D03*
X2334114D03*
X2412854D03*
X2255374Y805366D03*
X2412854D03*
X2176634D03*
Y962846D03*
Y884106D03*
Y1041587D03*
X2137264Y805366D03*
Y962846D03*
Y884106D03*
Y1041587D03*
X2331197Y611500D03*
X2252457D03*
X2331197Y532760D03*
X2252457D03*
X2409937Y611500D03*
Y532760D03*
X1929291Y429752D03*
Y351012D03*
X2008031Y429752D03*
Y351012D03*
X1929291Y508492D03*
X2008031D03*
X1930748Y595945D03*
Y753425D03*
Y674685D03*
X2252445Y468138D03*
X2331185D03*
X2409925D03*
X2966850Y663016D03*
X2931862Y623654D03*
X2832339Y972835D03*
X2011965Y1098189D03*
X2078528Y1097012D03*
X2011965Y1125748D03*
X2078528Y1124571D03*
X2011965Y1153307D03*
X2078528Y1152130D03*
X1976626Y1199051D03*
X1970736Y1229413D03*
X1976626Y1257685D03*
X2025520Y1302650D03*
X1995031Y1286110D03*
X2063220Y1303236D03*
X2091496Y1290866D03*
X2112114Y1264358D03*
X2121539Y1237260D03*
X2119772Y1210752D03*
X2107402Y1186012D03*
X3378965Y907346D03*
X3224417Y2463768D03*
X3606669Y1608000D03*
X3205299Y2476811D03*
X3606874Y2297449D03*
X3418335Y2495705D03*
X3385488Y2286217D03*
X3240898Y2116559D03*
X3128587Y2501209D03*
X3382547Y2356870D03*
X3485236Y2244386D03*
X3450276Y2337575D03*
X3472366Y2296122D03*
X3088909Y2123118D03*
X3116610Y2117283D03*
X3035504Y2651008D03*
X3220850Y2089587D03*
X3205390Y2784197D03*
X3399795Y2236528D03*
X3469827Y2667051D03*
X3421894Y2215091D03*
X3551543Y1793390D03*
X3284768Y2110181D03*
X3261307Y2104531D03*
X3166543Y2094685D03*
X2762598Y1664024D03*
X2919657D03*
X3139937Y2103071D03*
X2912551Y1737583D03*
X2762382Y1747657D03*
X3077083Y2462382D03*
X2716028Y1707646D03*
X3162598Y1664193D03*
Y1746772D03*
X3106098Y2472339D03*
X2832579Y1710717D03*
X3379657Y2379689D03*
X2854531Y2129173D03*
X2959244Y2354472D03*
X2920165Y2316122D03*
X2627236Y2112992D03*
X2327134Y2293441D03*
X2295638Y2294535D03*
X2327134Y2175547D03*
X2295638Y2174268D03*
X3204689Y1971594D03*
X2670602Y1674165D03*
X3561224Y1704929D03*
X3556535Y1576295D03*
X3382433Y2436311D03*
X3354406Y2435303D03*
X2662598Y2725984D03*
X1967969Y2511772D03*
X1966091Y2341843D03*
X2397583Y2159654D03*
X2231425Y2163075D03*
X2205480Y2026366D03*
X2053110Y1874925D03*
X2544449Y2159677D03*
X2771638Y2182965D03*
X2902858Y2176906D03*
X3441287Y2316402D03*
X3185925Y2118437D03*
X3050484Y2317835D03*
X3032937Y2205618D03*
X3244819Y2453142D03*
X3183394Y2469795D03*
X3164827Y2493480D03*
X3025362Y2422693D03*
X3312244Y2110291D03*
X2627882Y2062457D03*
X2987638Y2199110D03*
X2659370Y2226614D03*
X3215705Y2287323D03*
X3294445D03*
X3136965D03*
Y2208583D03*
X3215705D03*
X3294445D03*
Y2247953D03*
X3255075D03*
Y2287323D03*
Y2326693D03*
Y2366063D03*
X3294445D03*
Y2326693D03*
X3215705D03*
X3176335D03*
X3136965D03*
Y2366063D03*
X3176335D03*
X3215705D03*
X3176335Y2287323D03*
Y2247953D03*
X3215705D03*
X3136965D03*
X3176335Y2208583D03*
X3255075D03*
X2635748Y2226614D03*
X2682992D03*
Y2250236D03*
X2659370D03*
X2635748D03*
Y2202992D03*
X2659370D03*
X2682992D03*
X2482441Y2135197D03*
Y2174567D03*
Y2095827D03*
Y2056457D03*
Y2371417D03*
Y2410787D03*
Y2332047D03*
Y2292677D03*
Y2607638D03*
Y2647008D03*
Y2568268D03*
Y2528898D03*
Y2806457D03*
Y2857638D03*
Y2767087D03*
X2521811Y2857638D03*
X2561181D03*
X2747500Y2864669D03*
X2799894Y2867287D03*
X2699039Y2866413D03*
X2986575Y2867299D03*
X2947205D03*
X3025945D03*
X3224764Y2865720D03*
X3264134D03*
X3185394D03*
X3455669Y2857047D03*
X3416299D03*
X3487165D03*
X3506260Y2806457D03*
Y2837953D03*
X3505276Y2773051D03*
X3506260Y2574764D03*
Y2614134D03*
Y2535394D03*
Y2338543D03*
Y2102323D03*
X3507787Y1888193D03*
X3455866Y1833228D03*
X3237165D03*
X3506260Y2377913D03*
Y2299173D03*
Y2141693D03*
Y2062953D03*
Y1922992D03*
Y1844252D03*
X3416496Y1833228D03*
X3276535D03*
X2482441Y1883819D03*
X2521776Y1832091D03*
X2482441Y1923189D03*
X2566972Y1832457D03*
X2497598Y1833228D03*
X2482441Y1848386D03*
X3325870Y2513035D03*
X2011965Y2569370D03*
X2007457Y2545000D03*
X1985441Y2536665D03*
X1984445Y2486370D03*
X2005126Y2476299D03*
Y2452677D03*
Y2429055D03*
Y2405433D03*
Y2381811D03*
X1987059Y2367575D03*
X1982189Y2314898D03*
X2003311Y2300091D03*
Y2276469D03*
Y2252846D03*
Y2229224D03*
Y2205602D03*
Y2181980D03*
X2012535Y2156634D03*
Y2133012D03*
Y2109390D03*
Y2085768D03*
Y2062146D03*
X2021587Y2040028D03*
X2038622Y2023390D03*
X2057240Y2005961D03*
X2078630Y1993283D03*
X2089516Y1970713D03*
X2064035Y1846177D03*
X2088579Y1838110D03*
X2112449Y1834075D03*
X2136319Y1833736D03*
X2161496Y1834169D03*
X2185118D03*
X2208740D03*
X2232362D03*
X2255984D03*
X2078528Y2568193D03*
X2082969Y2540374D03*
X2083815Y2512953D03*
X2084925Y2483394D03*
Y2459772D03*
Y2436150D03*
Y2412528D03*
X2086894Y2388906D03*
X2083102Y2365594D03*
X2083382Y2342024D03*
Y2318402D03*
X2087984Y2294161D03*
Y2270539D03*
X2112689D03*
X2136311D03*
X2159933D03*
X2183555D03*
X2207925Y2274083D03*
X2231547D03*
X2255169D03*
X2359350Y2277520D03*
X2384496Y2274626D03*
X2408118D03*
X2431740D03*
X2090705Y2203362D03*
X2114327D03*
X2137949D03*
X2161571D03*
X2185193D03*
X2264512Y2193433D03*
X2363181Y2196051D03*
X2436969Y2173878D03*
X2438780Y2197398D03*
X2087811Y2176555D03*
X2079122Y2153618D03*
Y2129996D03*
Y2106374D03*
Y2082752D03*
X2173161Y1994882D03*
Y1971882D03*
Y1948882D03*
Y1920366D03*
X2293673Y1917689D03*
X2317295D03*
X2340917D03*
X2336831Y1844839D03*
X2364024Y1883343D03*
X2933827Y2470394D03*
X2755327Y2297787D03*
X2777917Y2293453D03*
X2805799Y2297189D03*
X2828799D03*
X2851799D03*
X2874909D03*
X2898425Y2293252D03*
X2811425Y2215571D03*
X2835047D03*
X2858669D03*
X2940583Y2212016D03*
X2965366Y2211291D03*
X3009346Y2211232D03*
X2872307Y2148000D03*
X2843134Y2149181D03*
X2869972Y2112122D03*
X2835642Y2112913D03*
X2874472Y1978087D03*
X2873882Y1948122D03*
X3406154Y2549150D03*
X2088921Y1946350D03*
X2084791Y1920413D03*
X2196220Y1920366D03*
X2220291Y1918429D03*
X2243913D03*
X2267535D03*
X2100413Y2069752D03*
X2124035D03*
X2147657D03*
X2168547Y2056681D03*
X2326409Y1823992D03*
X2070539Y1902087D03*
X2252488Y1803484D03*
X2228953Y1802307D03*
X2205248Y1801972D03*
X2179866Y1801299D03*
X2154142Y1801803D03*
X2130272Y1800795D03*
X3267126Y2555866D03*
X2325780Y1800736D03*
X2349315Y1801744D03*
X2373020Y1801075D03*
X2396720Y1801409D03*
X2420343Y1801583D03*
X2445480Y1801327D03*
X2468343Y1801075D03*
X2493220Y1800740D03*
X2518098Y1801579D03*
X2543988Y1800906D03*
X2571220D03*
X2594382Y1801256D03*
X2106402Y1801469D03*
X2080846Y1802476D03*
X2053287D03*
X2025728D03*
X1998169D03*
X1970610D03*
X1943051D03*
X1915492D03*
X2255374Y2855287D03*
X2334114D03*
X2412854D03*
X2255374Y2776547D03*
X2334114D03*
X2412854D03*
X2255374Y2697807D03*
X2334114D03*
X2412854D03*
X2255374Y2619067D03*
X2334114D03*
X2412854D03*
X2255374Y2540327D03*
X2334114D03*
X2412854D03*
X2255374Y2461587D03*
X2334114D03*
X2412854D03*
X2255374Y2382846D03*
X2334114D03*
X2412854D03*
X2255374Y2304106D03*
X2412854D03*
X2176634D03*
Y2461587D03*
Y2382846D03*
Y2540327D03*
X2137264Y2304106D03*
Y2461587D03*
Y2382846D03*
Y2540327D03*
X2331197Y2110240D03*
X2252457D03*
X2331197Y2031500D03*
X2252457D03*
X2409937Y2110240D03*
Y2031500D03*
X1929291Y1928492D03*
Y1849752D03*
X2008031Y1928492D03*
Y1849752D03*
X1929291Y2007232D03*
X2008031D03*
X1930748Y2094685D03*
Y2252165D03*
Y2173425D03*
X2252445Y1966878D03*
X2331185D03*
X2409925D03*
X2966850Y2161756D03*
X2931862Y2122394D03*
X2832339Y2471575D03*
X2011965Y2596929D03*
X2078528Y2595752D03*
X2011965Y2624488D03*
X2078528Y2623311D03*
X2011965Y2652047D03*
X2078528Y2650870D03*
X1976626Y2697791D03*
X1970736Y2728154D03*
X1976626Y2756425D03*
X2025520Y2801390D03*
X1995031Y2784850D03*
X2063220Y2801976D03*
X2091496Y2789606D03*
X2112114Y2763098D03*
X2121539Y2736000D03*
X2119772Y2709492D03*
X2107402Y2684752D03*
X3378965Y2406087D03*
X3224417Y3962508D03*
X3606669Y3106740D03*
X3205299Y3975551D03*
X3606874Y3796189D03*
X3418335Y3994445D03*
X3385488Y3784957D03*
X3240898Y3615299D03*
X3128587Y3999949D03*
X3382547Y3855610D03*
X3485236Y3743126D03*
X3450276Y3836315D03*
X3472366Y3794862D03*
X3088909Y3621858D03*
X3116610Y3616024D03*
X3035504Y4149748D03*
X3220850Y3588327D03*
X3205390Y4282937D03*
X3399795Y3735268D03*
X3469827Y4165791D03*
X3421894Y3713831D03*
X3551543Y3292130D03*
X3284768Y3608921D03*
X3261307Y3603272D03*
X3166543Y3593425D03*
X2762598Y3162764D03*
X2919657D03*
X3139937Y3601811D03*
X2912551Y3236323D03*
X2762382Y3246398D03*
X3077083Y3961122D03*
X2716028Y3206386D03*
X3162598Y3162933D03*
Y3245512D03*
X3106098Y3971079D03*
X2832579Y3209457D03*
X3379657Y3878429D03*
X2854531Y3627913D03*
X2959244Y3853213D03*
X2920165Y3814862D03*
X2627236Y3611732D03*
X2327134Y3792181D03*
X2295638Y3793276D03*
X2327134Y3674287D03*
X2295638Y3673008D03*
X3204689Y3470335D03*
X2670602Y3172906D03*
X3561224Y3203669D03*
X3556535Y3075035D03*
X3382433Y3935051D03*
X3354406Y3934043D03*
X2662598Y4224724D03*
X1967969Y4010512D03*
X1966091Y3840583D03*
X2397583Y3658394D03*
X2231425Y3661815D03*
X2205480Y3525106D03*
X2053110Y3373665D03*
X2544449Y3658417D03*
X2771638Y3681705D03*
X2902858Y3675646D03*
X3441287Y3815142D03*
X3185925Y3617177D03*
X3050484Y3816575D03*
X3032937Y3704358D03*
X3244819Y3951882D03*
X3183394Y3968535D03*
X3164827Y3992220D03*
X3025362Y3921433D03*
X3312244Y3609031D03*
X2627882Y3561197D03*
X2987638Y3697850D03*
X2659370Y3725354D03*
X3215705Y3786063D03*
X3294445D03*
X3136965D03*
Y3707323D03*
X3215705D03*
X3294445D03*
Y3746693D03*
X3255075D03*
Y3786063D03*
Y3825433D03*
Y3864803D03*
X3294445D03*
Y3825433D03*
X3215705D03*
X3176335D03*
X3136965D03*
Y3864803D03*
X3176335D03*
X3215705D03*
X3176335Y3786063D03*
Y3746693D03*
X3215705D03*
X3136965D03*
X3176335Y3707323D03*
X3255075D03*
X2635748Y3725354D03*
X2682992D03*
Y3748976D03*
X2659370D03*
X2635748D03*
Y3701732D03*
X2659370D03*
X2682992D03*
X2482441Y3633937D03*
Y3673307D03*
Y3594567D03*
Y3555197D03*
Y3870157D03*
Y3909528D03*
Y3830787D03*
Y3791417D03*
Y4106378D03*
Y4145748D03*
Y4067008D03*
Y4027638D03*
Y4305197D03*
Y4356378D03*
Y4265827D03*
X2521811Y4356378D03*
X2561181D03*
X2747500Y4363409D03*
X2799894Y4366028D03*
X2699039Y4365154D03*
X2986575Y4366039D03*
X2947205D03*
X3025945D03*
X3224764Y4364461D03*
X3264134D03*
X3185394D03*
X3455669Y4355787D03*
X3416299D03*
X3487165D03*
X3506260Y4305197D03*
Y4336693D03*
X3505276Y4271791D03*
X3506260Y4073504D03*
Y4112874D03*
Y4034134D03*
Y3837283D03*
Y3601063D03*
X3507787Y3386933D03*
X3455866Y3331969D03*
X3237165D03*
X3506260Y3876654D03*
Y3797913D03*
Y3640433D03*
Y3561693D03*
Y3421732D03*
Y3342992D03*
X3416496Y3331969D03*
X3276535D03*
X2482441Y3382559D03*
X2521776Y3330831D03*
X2482441Y3421929D03*
X2566972Y3331197D03*
X2497598Y3331969D03*
X2482441Y3347126D03*
X3325870Y4011776D03*
X2011965Y4068110D03*
X2007457Y4043740D03*
X1985441Y4035406D03*
X1984445Y3985110D03*
X2005126Y3975039D03*
Y3951417D03*
Y3927795D03*
Y3904173D03*
Y3880551D03*
X1987059Y3866315D03*
X1982189Y3813638D03*
X2003311Y3798831D03*
Y3775209D03*
Y3751587D03*
Y3727965D03*
Y3704343D03*
Y3680720D03*
X2012535Y3655374D03*
Y3631752D03*
Y3608130D03*
Y3584508D03*
Y3560886D03*
X2021587Y3538768D03*
X2038622Y3522130D03*
X2057240Y3504701D03*
X2078630Y3492024D03*
X2089516Y3469453D03*
X2064035Y3344917D03*
X2088579Y3336850D03*
X2112449Y3332815D03*
X2136319Y3332476D03*
X2161496Y3332909D03*
X2185118D03*
X2208740D03*
X2232362D03*
X2255984D03*
X2078528Y4066933D03*
X2082969Y4039114D03*
X2083815Y4011693D03*
X2084925Y3982134D03*
Y3958512D03*
Y3934890D03*
Y3911268D03*
X2086894Y3887646D03*
X2083102Y3864335D03*
X2083382Y3840764D03*
Y3817142D03*
X2087984Y3792902D03*
Y3769280D03*
X2112689D03*
X2136311D03*
X2159933D03*
X2183555D03*
X2207925Y3772823D03*
X2231547D03*
X2255169D03*
X2359350Y3776260D03*
X2384496Y3773366D03*
X2408118D03*
X2431740D03*
X2090705Y3702102D03*
X2114327D03*
X2137949D03*
X2161571D03*
X2185193D03*
X2264512Y3692173D03*
X2363181Y3694791D03*
X2436969Y3672618D03*
X2438780Y3696138D03*
X2087811Y3675295D03*
X2079122Y3652358D03*
Y3628736D03*
Y3605114D03*
Y3581492D03*
X2173161Y3493622D03*
Y3470622D03*
Y3447622D03*
Y3419106D03*
X2293673Y3416429D03*
X2317295D03*
X2340917D03*
X2336831Y3343579D03*
X2364024Y3382083D03*
X2933827Y3969134D03*
X2755327Y3796528D03*
X2777917Y3792193D03*
X2805799Y3795929D03*
X2828799D03*
X2851799D03*
X2874909D03*
X2898425Y3791992D03*
X2811425Y3714311D03*
X2835047D03*
X2858669D03*
X2940583Y3710756D03*
X2965366Y3710031D03*
X3009346Y3709972D03*
X2872307Y3646740D03*
X2843134Y3647921D03*
X2869972Y3610862D03*
X2835642Y3611654D03*
X2874472Y3476827D03*
X2873882Y3446862D03*
X3406154Y4047890D03*
X2088921Y3445091D03*
X2084791Y3419154D03*
X2196220Y3419106D03*
X2220291Y3417169D03*
X2243913D03*
X2267535D03*
X2100413Y3568492D03*
X2124035D03*
X2147657D03*
X2168547Y3555421D03*
X2326409Y3322732D03*
X2070539Y3400827D03*
X2252488Y3302224D03*
X2228953Y3301047D03*
X2205248Y3300713D03*
X2179866Y3300039D03*
X2154142Y3300543D03*
X2130272Y3299535D03*
X3267126Y4054606D03*
X2325780Y3299476D03*
X2349315Y3300484D03*
X2373020Y3299815D03*
X2396720Y3300150D03*
X2420343Y3300323D03*
X2445480Y3300067D03*
X2468343Y3299815D03*
X2493220Y3299480D03*
X2518098Y3300319D03*
X2543988Y3299646D03*
X2571220D03*
X2594382Y3299996D03*
X2106402Y3300209D03*
X2080846Y3301217D03*
X2053287D03*
X2025728D03*
X1998169D03*
X1970610D03*
X1943051D03*
X1915492D03*
X2255374Y4354028D03*
X2334114D03*
X2412854D03*
X2255374Y4275287D03*
X2334114D03*
X2412854D03*
X2255374Y4196547D03*
X2334114D03*
X2412854D03*
X2255374Y4117807D03*
X2334114D03*
X2412854D03*
X2255374Y4039067D03*
X2334114D03*
X2412854D03*
X2255374Y3960327D03*
X2334114D03*
X2412854D03*
X2255374Y3881587D03*
X2334114D03*
X2412854D03*
X2255374Y3802846D03*
X2412854D03*
X2176634D03*
Y3960327D03*
Y3881587D03*
Y4039067D03*
X2137264Y3802846D03*
Y3960327D03*
Y3881587D03*
Y4039067D03*
X2331197Y3608980D03*
X2252457D03*
X2331197Y3530240D03*
X2252457D03*
X2409937Y3608980D03*
Y3530240D03*
X1929291Y3427232D03*
Y3348492D03*
X2008031Y3427232D03*
Y3348492D03*
X1929291Y3505972D03*
X2008031D03*
X1930748Y3593425D03*
Y3750906D03*
Y3672165D03*
X2252445Y3465618D03*
X2331185D03*
X2409925D03*
X2966850Y3660496D03*
X2931862Y3621134D03*
X2832339Y3970315D03*
X2011965Y4095669D03*
X2078528Y4094492D03*
X2011965Y4123228D03*
X2078528Y4122051D03*
X2011965Y4150787D03*
X2078528Y4149610D03*
X1976626Y4196531D03*
X1970736Y4226894D03*
X1976626Y4255165D03*
X2025520Y4300130D03*
X1995031Y4283591D03*
X2063220Y4300717D03*
X2091496Y4288346D03*
X2112114Y4261839D03*
X2121539Y4234740D03*
X2119772Y4208232D03*
X2107402Y4183492D03*
X3378965Y3904827D03*
X3224417Y5461248D03*
X3606669Y4605480D03*
X3205299Y5474291D03*
X3606874Y5294929D03*
X3418335Y5493185D03*
X3385488Y5283697D03*
X3240898Y5114039D03*
X3128587Y5498689D03*
X3382547Y5354350D03*
X3485236Y5241866D03*
X3450276Y5335055D03*
X3472366Y5293602D03*
X3088909Y5120598D03*
X3116610Y5114764D03*
X3035504Y5648488D03*
X3220850Y5087067D03*
X3205390Y5781677D03*
X3399795Y5234008D03*
X3469827Y5664531D03*
X3421894Y5212571D03*
X3551543Y4790870D03*
X3284768Y5107661D03*
X3261307Y5102012D03*
X3166543Y5092165D03*
X2762598Y4661504D03*
X2919657D03*
X3139937Y5100551D03*
X2912551Y4735063D03*
X2762382Y4745138D03*
X3077083Y5459862D03*
X2716028Y4705126D03*
X3162598Y4661673D03*
Y4744252D03*
X3106098Y5469819D03*
X2832579Y4708197D03*
X3379657Y5377169D03*
X2854531Y5126654D03*
X2959244Y5351953D03*
X2920165Y5313602D03*
X2627236Y5110472D03*
X2327134Y5290921D03*
X2295638Y5292016D03*
X2327134Y5173028D03*
X2295638Y5171748D03*
X3204689Y4969075D03*
X2670602Y4671646D03*
X3561224Y4702409D03*
X3556535Y4573776D03*
X3382433Y5433791D03*
X3354406Y5432783D03*
X2662598Y5723465D03*
X1967969Y5509252D03*
X1966091Y5339323D03*
X2397583Y5157134D03*
X2231425Y5160555D03*
X2205480Y5023846D03*
X2053110Y4872406D03*
X2544449Y5157157D03*
X2771638Y5180445D03*
X2902858Y5174386D03*
X3441287Y5313882D03*
X3185925Y5115917D03*
X3050484Y5315315D03*
X3032937Y5203098D03*
X3244819Y5450622D03*
X3183394Y5467276D03*
X3164827Y5490961D03*
X3025362Y5420173D03*
X3312244Y5107772D03*
X2627882Y5059937D03*
X2987638Y5196591D03*
X2659370Y5224094D03*
X3215705Y5284803D03*
X3294445D03*
X3136965D03*
Y5206063D03*
X3215705D03*
X3294445D03*
Y5245433D03*
X3255075D03*
Y5284803D03*
Y5324173D03*
Y5363543D03*
X3294445D03*
Y5324173D03*
X3215705D03*
X3176335D03*
X3136965D03*
Y5363543D03*
X3176335D03*
X3215705D03*
X3176335Y5284803D03*
Y5245433D03*
X3215705D03*
X3136965D03*
X3176335Y5206063D03*
X3255075D03*
X2635748Y5224094D03*
X2682992D03*
Y5247717D03*
X2659370D03*
X2635748D03*
Y5200472D03*
X2659370D03*
X2682992D03*
X2482441Y5132677D03*
Y5172047D03*
Y5093307D03*
Y5053937D03*
Y5368898D03*
Y5408268D03*
Y5329528D03*
Y5290157D03*
Y5605118D03*
Y5644488D03*
Y5565748D03*
Y5526378D03*
Y5803937D03*
Y5855118D03*
Y5764567D03*
X2521811Y5855118D03*
X2561181D03*
X2747500Y5862150D03*
X2799894Y5864768D03*
X2699039Y5863894D03*
X2986575Y5864780D03*
X2947205D03*
X3025945D03*
X3224764Y5863201D03*
X3264134D03*
X3185394D03*
X3455669Y5854528D03*
X3416299D03*
X3487165D03*
X3506260Y5803937D03*
Y5835433D03*
X3505276Y5770531D03*
X3506260Y5572244D03*
Y5611614D03*
Y5532874D03*
Y5336024D03*
Y5099803D03*
X3507787Y4885673D03*
X3455866Y4830709D03*
X3237165D03*
X3506260Y5375394D03*
Y5296654D03*
Y5139173D03*
Y5060433D03*
Y4920472D03*
Y4841732D03*
X3416496Y4830709D03*
X3276535D03*
X2482441Y4881299D03*
X2521776Y4829571D03*
X2482441Y4920669D03*
X2566972Y4829937D03*
X2497598Y4830709D03*
X2482441Y4845866D03*
X3325870Y5510516D03*
X2011965Y5566850D03*
X2007457Y5542480D03*
X1985441Y5534146D03*
X1984445Y5483850D03*
X2005126Y5473780D03*
Y5450157D03*
Y5426535D03*
Y5402913D03*
Y5379291D03*
X1987059Y5365055D03*
X1982189Y5312378D03*
X2003311Y5297571D03*
Y5273949D03*
Y5250327D03*
Y5226705D03*
Y5203083D03*
Y5179461D03*
X2012535Y5154114D03*
Y5130492D03*
Y5106870D03*
Y5083248D03*
Y5059626D03*
X2021587Y5037508D03*
X2038622Y5020870D03*
X2057240Y5003441D03*
X2078630Y4990764D03*
X2089516Y4968193D03*
X2064035Y4843657D03*
X2088579Y4835591D03*
X2112449Y4831555D03*
X2136319Y4831217D03*
X2161496Y4831650D03*
X2185118D03*
X2208740D03*
X2232362D03*
X2255984D03*
X2078528Y5565673D03*
X2082969Y5537854D03*
X2083815Y5510433D03*
X2084925Y5480874D03*
Y5457252D03*
Y5433630D03*
Y5410008D03*
X2086894Y5386386D03*
X2083102Y5363075D03*
X2083382Y5339504D03*
Y5315882D03*
X2087984Y5291642D03*
Y5268020D03*
X2112689D03*
X2136311D03*
X2159933D03*
X2183555D03*
X2207925Y5271563D03*
X2231547D03*
X2255169D03*
X2359350Y5275000D03*
X2384496Y5272106D03*
X2408118D03*
X2431740D03*
X2090705Y5200843D03*
X2114327D03*
X2137949D03*
X2161571D03*
X2185193D03*
X2264512Y5190913D03*
X2363181Y5193531D03*
X2436969Y5171358D03*
X2438780Y5194878D03*
X2087811Y5174035D03*
X2079122Y5151098D03*
Y5127476D03*
Y5103854D03*
Y5080232D03*
X2173161Y4992362D03*
Y4969362D03*
Y4946362D03*
Y4917846D03*
X2293673Y4915169D03*
X2317295D03*
X2340917D03*
X2336831Y4842319D03*
X2364024Y4880823D03*
X2933827Y5467874D03*
X2755327Y5295268D03*
X2777917Y5290933D03*
X2805799Y5294669D03*
X2828799D03*
X2851799D03*
X2874909D03*
X2898425Y5290732D03*
X2811425Y5213051D03*
X2835047D03*
X2858669D03*
X2940583Y5209496D03*
X2965366Y5208772D03*
X3009346Y5208713D03*
X2872307Y5145480D03*
X2843134Y5146661D03*
X2869972Y5109602D03*
X2835642Y5110394D03*
X2874472Y4975567D03*
X2873882Y4945602D03*
X3406154Y5546630D03*
X2088921Y4943831D03*
X2084791Y4917894D03*
X2196220Y4917846D03*
X2220291Y4915909D03*
X2243913D03*
X2267535D03*
X2100413Y5067232D03*
X2124035D03*
X2147657D03*
X2168547Y5054161D03*
X2326409Y4821472D03*
X2070539Y4899567D03*
X2252488Y4800965D03*
X2228953Y4799787D03*
X2205248Y4799453D03*
X2179866Y4798780D03*
X2154142Y4799283D03*
X2130272Y4798276D03*
X3267126Y5553346D03*
X2325780Y4798217D03*
X2349315Y4799224D03*
X2373020Y4798555D03*
X2396720Y4798890D03*
X2420343Y4799063D03*
X2445480Y4798807D03*
X2468343Y4798555D03*
X2493220Y4798220D03*
X2518098Y4799059D03*
X2543988Y4798386D03*
X2571220D03*
X2594382Y4798736D03*
X2106402Y4798949D03*
X2080846Y4799957D03*
X2053287D03*
X2025728D03*
X1998169D03*
X1970610D03*
X1943051D03*
X1915492D03*
X2255374Y5852768D03*
X2334114D03*
X2412854D03*
X2255374Y5774028D03*
X2334114D03*
X2412854D03*
X2255374Y5695287D03*
X2334114D03*
X2412854D03*
X2255374Y5616547D03*
X2334114D03*
X2412854D03*
X2255374Y5537807D03*
X2334114D03*
X2412854D03*
X2255374Y5459067D03*
X2334114D03*
X2412854D03*
X2255374Y5380327D03*
X2334114D03*
X2412854D03*
X2255374Y5301587D03*
X2412854D03*
X2176634D03*
Y5459067D03*
Y5380327D03*
Y5537807D03*
X2137264Y5301587D03*
Y5459067D03*
Y5380327D03*
Y5537807D03*
X2331197Y5107720D03*
X2252457D03*
X2331197Y5028980D03*
X2252457D03*
X2409937Y5107720D03*
Y5028980D03*
X1929291Y4925972D03*
Y4847232D03*
X2008031Y4925972D03*
Y4847232D03*
X1929291Y5004713D03*
X2008031D03*
X1930748Y5092165D03*
Y5249646D03*
Y5170906D03*
X2252445Y4964358D03*
X2331185D03*
X2409925D03*
X2966850Y5159236D03*
X2931862Y5119874D03*
X2832339Y5469055D03*
X2011965Y5594409D03*
X2078528Y5593232D03*
X2011965Y5621969D03*
X2078528Y5620791D03*
X2011965Y5649528D03*
X2078528Y5648350D03*
X1976626Y5695272D03*
X1970736Y5725634D03*
X1976626Y5753906D03*
X2025520Y5798870D03*
X1995031Y5782331D03*
X2063220Y5799457D03*
X2091496Y5787087D03*
X2112114Y5760579D03*
X2121539Y5733480D03*
X2119772Y5706972D03*
X2107402Y5682232D03*
X3378965Y5403567D03*
X3224417Y6959988D03*
X3606669Y6104220D03*
X3205299Y6973031D03*
X3606874Y6793669D03*
X3418335Y6991925D03*
X3385488Y6782437D03*
X3240898Y6612780D03*
X3128587Y6997429D03*
X3382547Y6853091D03*
X3485236Y6740606D03*
X3450276Y6833795D03*
X3472366Y6792343D03*
X3088909Y6619339D03*
X3116610Y6613504D03*
X3035504Y7147228D03*
X3220850Y6585807D03*
X3205390Y7280417D03*
X3399795Y6732748D03*
X3469827Y7163272D03*
X3421894Y6711311D03*
X3551543Y6289610D03*
X3284768Y6606402D03*
X3261307Y6600752D03*
X3166543Y6590906D03*
X2762598Y6160244D03*
X2919657D03*
X3139937Y6599291D03*
X2912551Y6233803D03*
X2762382Y6243878D03*
X3077083Y6958602D03*
X2716028Y6203866D03*
X3162598Y6160413D03*
Y6242992D03*
X3106098Y6968559D03*
X2832579Y6206937D03*
X3379657Y6875909D03*
X2854531Y6625394D03*
X2959244Y6850693D03*
X2920165Y6812343D03*
X2627236Y6609213D03*
X2327134Y6789661D03*
X2295638Y6790756D03*
X2327134Y6671768D03*
X2295638Y6670488D03*
X3204689Y6467815D03*
X2670602Y6170386D03*
X3561224Y6201150D03*
X3556535Y6072516D03*
X3382433Y6932531D03*
X3354406Y6931524D03*
X2662598Y7222205D03*
X1967969Y7007992D03*
X1966091Y6838063D03*
X2397583Y6655874D03*
X2231425Y6659295D03*
X2205480Y6522587D03*
X2053110Y6371146D03*
X2544449Y6655898D03*
X2771638Y6679185D03*
X2902858Y6673126D03*
X3441287Y6812622D03*
X3185925Y6614657D03*
X3050484Y6814055D03*
X3032937Y6701839D03*
X3244819Y6949362D03*
X3183394Y6966016D03*
X3164827Y6989701D03*
X3025362Y6918913D03*
X3312244Y6606512D03*
X2627882Y6558677D03*
X2987638Y6695331D03*
X2659370Y6722835D03*
X3215705Y6783543D03*
X3294445D03*
X3136965D03*
Y6704803D03*
X3215705D03*
X3294445D03*
Y6744173D03*
X3255075D03*
Y6783543D03*
Y6822913D03*
Y6862283D03*
X3294445D03*
Y6822913D03*
X3215705D03*
X3176335D03*
X3136965D03*
Y6862283D03*
X3176335D03*
X3215705D03*
X3176335Y6783543D03*
Y6744173D03*
X3215705D03*
X3136965D03*
X3176335Y6704803D03*
X3255075D03*
X2635748Y6722835D03*
X2682992D03*
Y6746457D03*
X2659370D03*
X2635748D03*
Y6699213D03*
X2659370D03*
X2682992D03*
X2482441Y6631417D03*
Y6670787D03*
Y6592047D03*
Y6552677D03*
Y6867638D03*
Y6907008D03*
Y6828268D03*
Y6788898D03*
Y7103858D03*
Y7143228D03*
Y7064488D03*
Y7025118D03*
Y7302677D03*
Y7353858D03*
Y7263307D03*
X2521811Y7353858D03*
X2561181D03*
X2747500Y7360890D03*
X2799894Y7363508D03*
X2699039Y7362634D03*
X2986575Y7363520D03*
X2947205D03*
X3025945D03*
X3224764Y7361941D03*
X3264134D03*
X3185394D03*
X3455669Y7353268D03*
X3416299D03*
X3487165D03*
X3506260Y7302677D03*
Y7334173D03*
X3505276Y7269272D03*
X3506260Y7070984D03*
Y7110354D03*
Y7031614D03*
Y6834764D03*
Y6598543D03*
X3507787Y6384413D03*
X3455866Y6329449D03*
X3237165D03*
X3506260Y6874134D03*
Y6795394D03*
Y6637913D03*
Y6559173D03*
Y6419213D03*
Y6340472D03*
X3416496Y6329449D03*
X3276535D03*
X2482441Y6380039D03*
X2521776Y6328311D03*
X2482441Y6419409D03*
X2566972Y6328677D03*
X2497598Y6329449D03*
X2482441Y6344606D03*
X3325870Y7009256D03*
X2011965Y7065591D03*
X2007457Y7041220D03*
X1985441Y7032886D03*
X1984445Y6982591D03*
X2005126Y6972520D03*
Y6948898D03*
Y6925276D03*
Y6901654D03*
Y6878031D03*
X1987059Y6863795D03*
X1982189Y6811118D03*
X2003311Y6796311D03*
Y6772689D03*
Y6749067D03*
Y6725445D03*
Y6701823D03*
Y6678201D03*
X2012535Y6652854D03*
Y6629232D03*
Y6605610D03*
Y6581988D03*
Y6558366D03*
X2021587Y6536248D03*
X2038622Y6519610D03*
X2057240Y6502181D03*
X2078630Y6489504D03*
X2089516Y6466933D03*
X2064035Y6342398D03*
X2088579Y6334331D03*
X2112449Y6330295D03*
X2136319Y6329957D03*
X2161496Y6330390D03*
X2185118D03*
X2208740D03*
X2232362D03*
X2255984D03*
X2078528Y7064413D03*
X2082969Y7036594D03*
X2083815Y7009173D03*
X2084925Y6979614D03*
Y6955992D03*
Y6932370D03*
Y6908748D03*
X2086894Y6885126D03*
X2083102Y6861815D03*
X2083382Y6838244D03*
Y6814622D03*
X2087984Y6790382D03*
Y6766760D03*
X2112689D03*
X2136311D03*
X2159933D03*
X2183555D03*
X2207925Y6770303D03*
X2231547D03*
X2255169D03*
X2359350Y6773740D03*
X2384496Y6770846D03*
X2408118D03*
X2431740D03*
X2090705Y6699583D03*
X2114327D03*
X2137949D03*
X2161571D03*
X2185193D03*
X2264512Y6689654D03*
X2363181Y6692272D03*
X2436969Y6670098D03*
X2438780Y6693618D03*
X2087811Y6672776D03*
X2079122Y6649839D03*
Y6626217D03*
Y6602594D03*
Y6578972D03*
X2173161Y6491102D03*
Y6468102D03*
Y6445102D03*
Y6416587D03*
X2293673Y6413909D03*
X2317295D03*
X2340917D03*
X2336831Y6341059D03*
X2364024Y6379563D03*
X2933827Y6966614D03*
X2755327Y6794008D03*
X2777917Y6789673D03*
X2805799Y6793409D03*
X2828799D03*
X2851799D03*
X2874909D03*
X2898425Y6789472D03*
X2811425Y6711791D03*
X2835047D03*
X2858669D03*
X2940583Y6708236D03*
X2965366Y6707512D03*
X3009346Y6707453D03*
X2872307Y6644220D03*
X2843134Y6645402D03*
X2869972Y6608343D03*
X2835642Y6609134D03*
X2874472Y6474307D03*
X2873882Y6444343D03*
X3406154Y7045370D03*
X2088921Y6442571D03*
X2084791Y6416634D03*
X2196220Y6416587D03*
X2220291Y6414650D03*
X2243913D03*
X2267535D03*
X2100413Y6565972D03*
X2124035D03*
X2147657D03*
X2168547Y6552902D03*
X2326409Y6320213D03*
X2070539Y6398307D03*
X2252488Y6299705D03*
X2228953Y6298528D03*
X2205248Y6298193D03*
X2179866Y6297520D03*
X2154142Y6298024D03*
X2130272Y6297016D03*
X3267126Y7052087D03*
X2325780Y6296957D03*
X2349315Y6297965D03*
X2373020Y6297295D03*
X2396720Y6297630D03*
X2420343Y6297803D03*
X2445480Y6297547D03*
X2468343Y6297295D03*
X2493220Y6296961D03*
X2518098Y6297799D03*
X2543988Y6297126D03*
X2571220D03*
X2594382Y6297476D03*
X2106402Y6297689D03*
X2080846Y6298697D03*
X2053287D03*
X2025728D03*
X1998169D03*
X1970610D03*
X1943051D03*
X1915492D03*
X2255374Y7351508D03*
X2334114D03*
X2412854D03*
X2255374Y7272768D03*
X2334114D03*
X2412854D03*
X2255374Y7194028D03*
X2334114D03*
X2412854D03*
X2255374Y7115287D03*
X2334114D03*
X2412854D03*
X2255374Y7036547D03*
X2334114D03*
X2412854D03*
X2255374Y6957807D03*
X2334114D03*
X2412854D03*
X2255374Y6879067D03*
X2334114D03*
X2412854D03*
X2255374Y6800327D03*
X2412854D03*
X2176634D03*
Y6957807D03*
Y6879067D03*
Y7036547D03*
X2137264Y6800327D03*
Y6957807D03*
Y6879067D03*
Y7036547D03*
X2331197Y6606461D03*
X2252457D03*
X2331197Y6527720D03*
X2252457D03*
X2409937Y6606461D03*
Y6527720D03*
X1929291Y6424713D03*
Y6345972D03*
X2008031Y6424713D03*
Y6345972D03*
X1929291Y6503453D03*
X2008031D03*
X1930748Y6590906D03*
Y6748386D03*
Y6669646D03*
X2252445Y6463098D03*
X2331185D03*
X2409925D03*
X2966850Y6657976D03*
X2931862Y6618614D03*
X2832339Y6967795D03*
X2011965Y7093150D03*
X2078528Y7091972D03*
X2011965Y7120709D03*
X2078528Y7119531D03*
X2011965Y7148268D03*
X2078528Y7147091D03*
X1976626Y7194012D03*
X1970736Y7224374D03*
X1976626Y7252646D03*
X2025520Y7297610D03*
X1995031Y7281071D03*
X2063220Y7298197D03*
X2091496Y7285827D03*
X2112114Y7259319D03*
X2121539Y7232220D03*
X2119772Y7205713D03*
X2107402Y7180972D03*
X3378965Y6902307D03*
D11*
X1316110Y587929D03*
X1730000Y653811D03*
X1689772Y1274024D03*
X1559819Y783697D03*
X1548024Y477382D03*
X1729669Y251634D03*
X1730000Y519469D03*
X1244748Y408110D03*
X1176945Y494441D03*
X1329441Y429547D03*
X846315Y640618D03*
X857457Y614319D03*
X1382130Y79130D03*
X1201965Y927091D03*
X1109390Y950969D03*
X1575827Y876150D03*
X1514929Y1015472D03*
X1730000Y1084772D03*
X1464169Y613500D03*
X883398Y649469D03*
X885760Y619110D03*
X914146Y636854D03*
X833850Y526244D03*
X840835Y482583D03*
X883000Y463386D03*
Y431055D03*
X1637772Y933748D03*
X1596213Y920374D03*
X1537394Y1263669D03*
X1534453Y636130D03*
X1527949Y700472D03*
X1548791Y679799D03*
X1686488Y1227004D03*
X1568815Y969228D03*
X1579941Y901394D03*
X1526248Y557949D03*
X726720Y279161D03*
X728067Y253783D03*
Y226224D03*
Y198665D03*
Y171106D03*
Y143547D03*
Y115988D03*
Y88429D03*
Y60870D03*
Y33311D03*
X1607130Y971236D03*
X1316110Y2086669D03*
X1730000Y2152551D03*
X1689772Y2772764D03*
X1559819Y2282437D03*
X1548024Y1976122D03*
X1729669Y1750374D03*
X1730000Y2018209D03*
X1244748Y1906850D03*
X1176945Y1993181D03*
X1329441Y1928287D03*
X846315Y2139358D03*
X857457Y2113059D03*
X1382130Y1577870D03*
X1201965Y2425831D03*
X1109390Y2449709D03*
X1575827Y2374890D03*
X1514929Y2514213D03*
X1730000Y2583512D03*
X1464169Y2112240D03*
X883398Y2148209D03*
X885760Y2117850D03*
X914146Y2135594D03*
X833850Y2024984D03*
X840835Y1981323D03*
X883000Y1962126D03*
Y1929795D03*
X1637772Y2432488D03*
X1596213Y2419114D03*
X1537394Y2762409D03*
X1534453Y2134870D03*
X1527949Y2199213D03*
X1548791Y2178539D03*
X1686488Y2725744D03*
X1568815Y2467969D03*
X1579941Y2400134D03*
X1526248Y2056689D03*
X726720Y1777902D03*
X728067Y1752524D03*
Y1724965D03*
Y1697406D03*
Y1669846D03*
Y1642287D03*
Y1614728D03*
Y1587169D03*
Y1559610D03*
Y1532051D03*
X1607130Y2469976D03*
X1316110Y3585409D03*
X1730000Y3651291D03*
X1689772Y4271504D03*
X1559819Y3781177D03*
X1548024Y3474862D03*
X1729669Y3249114D03*
X1730000Y3516949D03*
X1244748Y3405591D03*
X1176945Y3491921D03*
X1329441Y3427028D03*
X846315Y3638098D03*
X857457Y3611799D03*
X1382130Y3076610D03*
X1201965Y3924571D03*
X1109390Y3948449D03*
X1575827Y3873630D03*
X1514929Y4012953D03*
X1730000Y4082252D03*
X1464169Y3610980D03*
X883398Y3646949D03*
X885760Y3616591D03*
X914146Y3634335D03*
X833850Y3523724D03*
X840835Y3480063D03*
X883000Y3460866D03*
Y3428535D03*
X1637772Y3931228D03*
X1596213Y3917854D03*
X1537394Y4261150D03*
X1534453Y3633610D03*
X1527949Y3697953D03*
X1548791Y3677280D03*
X1686488Y4224484D03*
X1568815Y3966709D03*
X1579941Y3898874D03*
X1526248Y3555429D03*
X726720Y3276642D03*
X728067Y3251264D03*
Y3223705D03*
Y3196146D03*
Y3168587D03*
Y3141028D03*
Y3113469D03*
Y3085909D03*
Y3058350D03*
Y3030791D03*
X1607130Y3968717D03*
X1316110Y5084150D03*
X1730000Y5150031D03*
X1689772Y5770244D03*
X1559819Y5279917D03*
X1548024Y4973602D03*
X1729669Y4747854D03*
X1730000Y5015689D03*
X1244748Y4904331D03*
X1176945Y4990661D03*
X1329441Y4925768D03*
X846315Y5136839D03*
X857457Y5110539D03*
X1382130Y4575350D03*
X1201965Y5423311D03*
X1109390Y5447189D03*
X1575827Y5372370D03*
X1514929Y5511693D03*
X1730000Y5580992D03*
X1464169Y5109720D03*
X883398Y5145689D03*
X885760Y5115331D03*
X914146Y5133075D03*
X833850Y5022465D03*
X840835Y4978803D03*
X883000Y4959606D03*
Y4927276D03*
X1637772Y5429969D03*
X1596213Y5416594D03*
X1537394Y5759890D03*
X1534453Y5132350D03*
X1527949Y5196693D03*
X1548791Y5176020D03*
X1686488Y5723224D03*
X1568815Y5465449D03*
X1579941Y5397614D03*
X1526248Y5054169D03*
X726720Y4775382D03*
X728067Y4750004D03*
Y4722445D03*
Y4694886D03*
Y4667327D03*
Y4639768D03*
Y4612209D03*
Y4584650D03*
Y4557091D03*
Y4529531D03*
X1607130Y5467457D03*
X1316110Y6582890D03*
X1730000Y6648772D03*
X1689772Y7268984D03*
X1559819Y6778657D03*
X1548024Y6472343D03*
X1729669Y6246594D03*
X1730000Y6514429D03*
X1244748Y6403071D03*
X1176945Y6489402D03*
X1329441Y6424508D03*
X846315Y6635579D03*
X857457Y6609280D03*
X1382130Y6074091D03*
X1201965Y6922051D03*
X1109390Y6945929D03*
X1575827Y6871110D03*
X1514929Y7010433D03*
X1730000Y7079732D03*
X1464169Y6608461D03*
X883398Y6644429D03*
X885760Y6614071D03*
X914146Y6631815D03*
X833850Y6521205D03*
X840835Y6477543D03*
X883000Y6458346D03*
Y6426016D03*
X1637772Y6928709D03*
X1596213Y6915335D03*
X1537394Y7258630D03*
X1534453Y6631091D03*
X1527949Y6695433D03*
X1548791Y6674760D03*
X1686488Y7221965D03*
X1568815Y6964189D03*
X1579941Y6896354D03*
X1526248Y6552909D03*
X726720Y6274122D03*
X728067Y6248744D03*
Y6221185D03*
Y6193626D03*
Y6166067D03*
Y6138508D03*
Y6110949D03*
Y6083390D03*
Y6055831D03*
Y6028272D03*
X1607130Y6966197D03*
X3192055Y587929D03*
X3605945Y653811D03*
X3565717Y1274024D03*
X3435764Y783697D03*
X3423969Y477382D03*
X3605614Y251634D03*
X3605945Y519469D03*
X3120693Y408110D03*
X3052890Y494441D03*
X3205386Y429547D03*
X2722260Y640618D03*
X2733402Y614319D03*
X3258075Y79130D03*
X3077909Y927091D03*
X2985335Y950969D03*
X3451772Y876150D03*
X3390874Y1015472D03*
X3605945Y1084772D03*
X3340114Y613500D03*
X2759343Y649469D03*
X2761705Y619110D03*
X2790091Y636854D03*
X2709795Y526244D03*
X2716780Y482583D03*
X2758945Y463386D03*
Y431055D03*
X3513717Y933748D03*
X3472157Y920374D03*
X3413339Y1263669D03*
X3410398Y636130D03*
X3403894Y700472D03*
X3424736Y679799D03*
X3562433Y1227004D03*
X3444760Y969228D03*
X3455886Y901394D03*
X3402193Y557949D03*
X2602665Y279161D03*
X2604012Y253783D03*
Y226224D03*
Y198665D03*
Y171106D03*
Y143547D03*
Y115988D03*
Y88429D03*
Y60870D03*
Y33311D03*
X3483075Y971236D03*
X3192055Y2086669D03*
X3605945Y2152551D03*
X3565717Y2772764D03*
X3435764Y2282437D03*
X3423969Y1976122D03*
X3605614Y1750374D03*
X3605945Y2018209D03*
X3120693Y1906850D03*
X3052890Y1993181D03*
X3205386Y1928287D03*
X2722260Y2139358D03*
X2733402Y2113059D03*
X3258075Y1577870D03*
X3077909Y2425831D03*
X2985335Y2449709D03*
X3451772Y2374890D03*
X3390874Y2514213D03*
X3605945Y2583512D03*
X3340114Y2112240D03*
X2759343Y2148209D03*
X2761705Y2117850D03*
X2790091Y2135594D03*
X2709795Y2024984D03*
X2716780Y1981323D03*
X2758945Y1962126D03*
Y1929795D03*
X3513717Y2432488D03*
X3472157Y2419114D03*
X3413339Y2762409D03*
X3410398Y2134870D03*
X3403894Y2199213D03*
X3424736Y2178539D03*
X3562433Y2725744D03*
X3444760Y2467969D03*
X3455886Y2400134D03*
X3402193Y2056689D03*
X2602665Y1777902D03*
X2604012Y1752524D03*
Y1724965D03*
Y1697406D03*
Y1669846D03*
Y1642287D03*
Y1614728D03*
Y1587169D03*
Y1559610D03*
Y1532051D03*
X3483075Y2469976D03*
X3192055Y3585409D03*
X3605945Y3651291D03*
X3565717Y4271504D03*
X3435764Y3781177D03*
X3423969Y3474862D03*
X3605614Y3249114D03*
X3605945Y3516949D03*
X3120693Y3405591D03*
X3052890Y3491921D03*
X3205386Y3427028D03*
X2722260Y3638098D03*
X2733402Y3611799D03*
X3258075Y3076610D03*
X3077909Y3924571D03*
X2985335Y3948449D03*
X3451772Y3873630D03*
X3390874Y4012953D03*
X3605945Y4082252D03*
X3340114Y3610980D03*
X2759343Y3646949D03*
X2761705Y3616591D03*
X2790091Y3634335D03*
X2709795Y3523724D03*
X2716780Y3480063D03*
X2758945Y3460866D03*
Y3428535D03*
X3513717Y3931228D03*
X3472157Y3917854D03*
X3413339Y4261150D03*
X3410398Y3633610D03*
X3403894Y3697953D03*
X3424736Y3677280D03*
X3562433Y4224484D03*
X3444760Y3966709D03*
X3455886Y3898874D03*
X3402193Y3555429D03*
X2602665Y3276642D03*
X2604012Y3251264D03*
Y3223705D03*
Y3196146D03*
Y3168587D03*
Y3141028D03*
Y3113469D03*
Y3085909D03*
Y3058350D03*
Y3030791D03*
X3483075Y3968717D03*
X3192055Y5084150D03*
X3605945Y5150031D03*
X3565717Y5770244D03*
X3435764Y5279917D03*
X3423969Y4973602D03*
X3605614Y4747854D03*
X3605945Y5015689D03*
X3120693Y4904331D03*
X3052890Y4990661D03*
X3205386Y4925768D03*
X2722260Y5136839D03*
X2733402Y5110539D03*
X3258075Y4575350D03*
X3077909Y5423311D03*
X2985335Y5447189D03*
X3451772Y5372370D03*
X3390874Y5511693D03*
X3605945Y5580992D03*
X3340114Y5109720D03*
X2759343Y5145689D03*
X2761705Y5115331D03*
X2790091Y5133075D03*
X2709795Y5022465D03*
X2716780Y4978803D03*
X2758945Y4959606D03*
Y4927276D03*
X3513717Y5429969D03*
X3472157Y5416594D03*
X3413339Y5759890D03*
X3410398Y5132350D03*
X3403894Y5196693D03*
X3424736Y5176020D03*
X3562433Y5723224D03*
X3444760Y5465449D03*
X3455886Y5397614D03*
X3402193Y5054169D03*
X2602665Y4775382D03*
X2604012Y4750004D03*
Y4722445D03*
Y4694886D03*
Y4667327D03*
Y4639768D03*
Y4612209D03*
Y4584650D03*
Y4557091D03*
Y4529531D03*
X3483075Y5467457D03*
X3192055Y6582890D03*
X3605945Y6648772D03*
X3565717Y7268984D03*
X3435764Y6778657D03*
X3423969Y6472343D03*
X3605614Y6246594D03*
X3605945Y6514429D03*
X3120693Y6403071D03*
X3052890Y6489402D03*
X3205386Y6424508D03*
X2722260Y6635579D03*
X2733402Y6609280D03*
X3258075Y6074091D03*
X3077909Y6922051D03*
X2985335Y6945929D03*
X3451772Y6871110D03*
X3390874Y7010433D03*
X3605945Y7079732D03*
X3340114Y6608461D03*
X2759343Y6644429D03*
X2761705Y6614071D03*
X2790091Y6631815D03*
X2709795Y6521205D03*
X2716780Y6477543D03*
X2758945Y6458346D03*
Y6426016D03*
X3513717Y6928709D03*
X3472157Y6915335D03*
X3413339Y7258630D03*
X3410398Y6631091D03*
X3403894Y6695433D03*
X3424736Y6674760D03*
X3562433Y7221965D03*
X3444760Y6964189D03*
X3455886Y6896354D03*
X3402193Y6552909D03*
X2602665Y6274122D03*
X2604012Y6248744D03*
Y6221185D03*
Y6193626D03*
Y6166067D03*
Y6138508D03*
Y6110949D03*
Y6083390D03*
Y6055831D03*
Y6028272D03*
X3483075Y6966197D03*
D12*
X1423650Y162772D03*
X1620500D03*
X1423650Y1661512D03*
X1620500D03*
X1423650Y3160252D03*
X1620500D03*
X1423650Y4658992D03*
X1620500D03*
X1423650Y6157732D03*
X1620500D03*
X3299594Y162772D03*
X3496445D03*
X3299594Y1661512D03*
X3496445D03*
X3299594Y3160252D03*
X3496445D03*
X3299594Y4658992D03*
X3496445D03*
X3299594Y6157732D03*
X3496445D03*
D13*
X169685Y1229449D03*
X269685Y1329449D03*
X69685D03*
Y1129449D03*
X269685D03*
X169685Y2728189D03*
X269685Y2828189D03*
X69685D03*
Y2628189D03*
X269685D03*
X169685Y4226929D03*
X269685Y4326929D03*
X69685D03*
Y4126929D03*
X269685D03*
X169685Y5725669D03*
X269685Y5825669D03*
X69685D03*
Y5625669D03*
X269685D03*
X169685Y7224409D03*
X269685Y7324409D03*
X69685D03*
Y7124409D03*
X269685D03*
X2045630Y1229449D03*
X2145630Y1329449D03*
X1945630D03*
Y1129449D03*
X2145630D03*
X2045630Y2728189D03*
X2145630Y2828189D03*
X1945630D03*
Y2628189D03*
X2145630D03*
X2045630Y4226929D03*
X2145630Y4326929D03*
X1945630D03*
Y4126929D03*
X2145630D03*
X2045630Y5725669D03*
X2145630Y5825669D03*
X1945630D03*
Y5625669D03*
X2145630D03*
X2045630Y7224409D03*
X2145630Y7324409D03*
X1945630D03*
Y7124409D03*
X2145630D03*
D14*
X-198858Y-2795D03*
X3867992D03*
Y7412165D03*
X-198858D03*
%LPD*%
M02*