M48
METRIC
;LEADER: 12 
;HEADER: 
;CODE  : ASCII 
;FILE  : E1120000027901_09NOV2020-1-4-np.drl for  ... layers TOP and BOTTOM
;DESIGN: E1120000027901_09NOV2020.brd
;   Holesize 1. = 2.300000 Tolerance = +0.050000/-0.050000 NON_PLATED MM Quantity = 4
;   Holesize 2. = 3.000000 Tolerance = +0.050000/-0.050000 NON_PLATED MM Quantity = 4
%
G90
X3569800Y-1142700
X3569800Y1157300
X-3569100Y1140500
X-3569100Y-1159500
M00
X-3521000Y-3521000
X-3521000Y3521000
X3521000Y3521000
X3521000Y-3521000
M30
