VERSION = 2.0
UUNITS = MILLIMETERS

#    refdes          !   symbol_x !   symbol_y ! rotation ! mirror ! symbol_name                      ! embedded_layer                  
#-----------------------------------------------------------------------------------------------------------------------
C33                  !    15.1300 !    18.7380 !        0 !        ! CAPC1005X55N                     !                                 
C10                  !     4.3100 !    23.8138 !      270 !        ! 0402                             !                                 
C21                  !    24.0338 !    13.9891 !      180 !      m ! CAPM3528X210N                    !                                 
L2                   !     3.7600 !    21.4148 !        0 !        ! CAPC1005X55N                     !                                 
L7                   !     3.7600 !    25.7310 !        0 !        ! CAPC1005X55N                     !                                 
L5                   !    11.0586 !    18.7319 !      180 !        ! C0201                            !                                 
C32                  !    24.1104 !    11.0548 !        0 !        ! CAPC1005X55N                     !                                 
L6                   !    20.8386 !    11.0625 !      180 !      m ! IND1005X55N                      !                                 
R1                   !    43.9420 !    34.1750 !      270 !        ! RESC1608X45N                     !                                 
R2                   !    43.9420 !     8.0600 !       90 !        ! RESC1608X45N                     !                                 
R3                   !    43.9420 !    14.9080 !       90 !        ! RESC1608X45N                     !                                 
R4                   !    43.9272 !    18.3408 !       90 !      m ! RESC1608X45N                     !                                 
R5                   !    43.9829 !     4.4351 !       90 !      m ! RESC1608X45N                     !                                 
U4                   !    11.0602 !    18.7380 !      180 !        ! FILTER_0603                      !                                 
C17                  !    40.2801 !     1.9699 !      180 !      m ! CAPC1608X90N                     !                                 
L4                   !    11.0890 !     9.5565 !        0 !        ! 0402                             !                                 
U1                   !    34.0299 !    20.0300 !      270 !        ! 48-PIN-QFN                       !                                 
U3                   !    35.0719 !    12.2849 !       90 !        ! SOIC-8                           !                                 
A1                   !     6.0650 !     1.5293 !      180 !        ! 2450AT45A100E                    !                                 
B1                   !    28.2223 !    20.0585 !       90 !        ! FILTER-BALUN                     !                                 
C1                   !    34.6506 !    25.7089 !      270 !        ! CAPC1005X55N                     !                                 
C2                   !    35.7761 !    25.5925 !      270 !        ! CAPC1005X55N                     !                                 
C14                  !     6.9770 !    13.4017 !        0 !        ! CAPC1005X55N                     !                                 
C15                  !     5.8770 !     9.5565 !      180 !        ! CAPC1005X55N                     !                                 
C13                  !    24.4136 !    19.2380 !        0 !        ! CAPC1005X55N                     !                                 
C11                  !    29.0655 !    22.1561 !      270 !      m ! CAPC1005X55N                     !                                 
C12                  !    39.0658 !    19.8656 !       90 !      m ! CAPC1005X55N                     !                                 
C16                  !    37.5982 !    20.5668 !      270 !      m ! CAPC1005X55N                     !                                 
C18                  !    36.5231 !    16.5235 !        0 !      m ! CAPC1005X55N                     !                                 
C19                  !    33.4965 !    16.5118 !        0 !      m ! CAPC1005X55N                     !                                 
C5                   !    33.2142 !    23.5869 !        0 !      m ! CAPC1005X55N                     !                                 
C22                  !    32.6081 !    11.4605 !      270 !      m ! CAPC1005X55N                     !                                 
C4                   !    35.3944 !    23.5759 !      180 !      m ! CAPC1005X55N                     !                                 
C23                  !    26.0836 !    18.6880 !      270 !        ! CAPC1005X55N                     !                                 
C24                  !    22.7436 !    18.6880 !      270 !        ! CAPC1005X55N                     !                                 
C20                  !     8.3786 !     9.5565 !      180 !        ! CAPC1005X55N                     !                                 
C25                  !     9.0292 !    18.1880 !      270 !        ! CAPC1005X55N                     !                                 
C26                  !    13.2496 !    18.1880 !      270 !        ! CAPC1005X55N                     !                                 
C27                  !    16.9800 !    18.1880 !      270 !        ! CAPC1005X55N                     !                                 
C31                  !    24.0650 !    12.2278 !        0 !        ! CAPC1005X55N                     !                                 
C28                  !    20.4436 !    14.3258 !      180 !        ! CAPC1005X55N                     !                                 
C29                  !    20.4436 !    15.6020 !      180 !        ! CAPC1005X55N                     !                                 
C9                   !    39.1569 !    23.9777 !      270 !        ! CAPC1005X55N                     !                                 
C3                   !    35.7762 !    25.6066 !      270 !      m ! CAPC1005X55N                     !                                 
C6                   !    37.0311 !    26.9806 !      270 !        ! CAPC1005X55N                     !                                 
C7                   !    39.5311 !    26.9806 !      270 !        ! CAPC1005X55N                     !                                 
J1                   !    26.3310 !     5.2320 !        0 !      m ! CONN6X2254SMTJ1                  !                                 
J2                   !    26.3820 !    30.1540 !        0 !      m ! CONN6X2254SMTJ2                  !                                 
L1                   !    37.7045 !    25.0570 !        0 !      m ! IND1005X55N                      !                                 
L3                   !     6.4270 !    11.3791 !       90 !        ! 0402                             !                                 
D1                   !    43.9319 !    31.1151 !      270 !        ! LEDC1608X70N                     !                                 
D2                   !    43.9521 !    11.2929 !      270 !        ! LEDC1608X70N                     !                                 
D3                   !    43.9521 !    18.4659 !      270 !        ! LEDC1608X70N                     !                                 
D4                   !    43.9521 !     4.7499 !      270 !        ! LEDC1608X70N                     !                                 
D5                   !    43.9521 !    25.6079 !      270 !        ! LEDC1608X70N                     !                                 
R15                  !    21.7942 !    22.5978 !      270 !        ! RESC1608X45N                     !                                 
R16                  !    20.1547 !    22.5605 !      270 !        ! RESC1608X45N                     !                                 
R6                   !    36.9958 !     2.0099 !        0 !      m ! RESC1608X45N                     !                                 
R7                   !    36.9558 !     6.0552 !        0 !      m ! RESC1608X45N                     !                                 
R13                  !    39.1463 !    21.7737 !      270 !        ! RESC1005X35N                     !                                 
R11                  !     4.3100 !    18.2880 !       90 !        ! RESC1005X35N                     !                                 
R12                  !     4.3100 !    19.1880 !       90 !        ! RESC1005X35N                     !                                 
R10                  !    30.3397 !    10.3660 !        0 !        ! RESC1005X35N                     !                                 
R9                   !    30.3444 !    11.6934 !      180 !        ! RESC1005X35N                     !                                 
R8                   !    39.3198 !    10.7945 !       90 !        ! RESC1005X35N                     !                                 
SH1                  !    28.4075 !    21.4985 !      180 !        ! SH                               !                                 
SW1                  !    38.6547 !     3.9579 !        0 !        ! SW                               !                                 
U2                   !    19.8990 !    18.4880 !      180 !        ! QFN50P300X300X60-17N             !                                 
X1                   !     4.3165 !    31.2280 !      180 !        ! SMA_TH                           !                                 
Y1                   !    33.4217 !    28.9694 !        0 !        ! XTAL_16_SMD_REV1                 !                                 
Y2                   !    38.2821 !    29.2583 !      180 !        ! XTAL32768SMD                     !                                 
